1 PNT
PNT

1 NF
PNT

1 NF
PNT

1 PN-PN
PNT

1 PN-NF
PNT

1 NF-NF
PNT

1 NF-PN
PNT

1 URL
PNT

1 ALT
PNT

1 BCT 
PNT

1 NFG
PNT

1 IDT
PNT

2 NF NF
PNT PNT

2 NF AJT
PNT PNT

2 NF ORT
PNT ORT

2 NF AST
PNT AST

2 NF IDT
PNT IDT

2 NF IDT-AJT
PNT IDT

2 NF BCT
PNT NF

2 PNT NF
PNT NF

2 PNT ORT
PNT ORT

2 PNT AST
PNT AST

2 PNT IDT
PNT IDT

2 PNT BCT
PNT NF

2 PNT IDT-AJT
PNT IDT

2 PNT AJT
PNT PNT

2 AJT IDT
PNT PNT

2 IDT IDT
PNT IDT

2 IDT ORT
PNT ORT

2 IDT AST
PNT AST

2 CTT NF
PNT PNT

2 NFG ORT
PNT ORT

2 NFG AST
PNT AST

2 BCT IDT
PNT PNT

2 BCT NF
PNT PNT

2 BCT ORT
PNT PNT

2 BCT AST
PNT PNT

2 BCT NFG
PNT PNT

2 PN-PN ORT
PNT ORT

2 PN-NF ORT
PNT ORT

2 NF-NF ORT
PNT ORT

2 NF-PN ORT
PNT ORT

2 IDT NF
PNT PNT

2 ALT AST
PNT AST

2 ALT IDT
PNT IDT

2 ALT NF
PNT NF

2 ALT ORT
PNT ORT

2 PN-PN AST
PNT AST

2 PN-NF AST
PNT AST

2 NF-NF AST
PNT AST

2 NF-PN AST
PNT AST

2 PN-PN ORT
PNT ORT

2 PN-NF ORT
PNT ORT

2 NF-NF ORT
PNT ORT

2 NF-PN ORT
PNT ORT

2 NFG IDT
PNT IDT

2 NFG ORT
PNT ORT

2 NFG AST
PNT AST

3 BCT CTT CNT
PNT PNT PNT

3 BCT CTT CST
PNT PNT PNT

3 PNT NF NF
PNT NF NF

3 PNT IDT ORT
PNT IDT ORT

3 NF ORT NF
PNT ORT NF

3 CST NF ORT
PNT PNT ORT

3 CST NF AST
PNT PNT AST

3 CST PNT AST
PNT PNT AST

3 CST PNT ORT
PNT PNT ORT

3 NF ORT ORT
PNT ORT ORT

3 PNT ORT ORT
PNT ORT ORT

3 NAT NF ORT
PNT PNT ORT

3 CNT NF ORT
PNT PNT ORT

3 NF CCT NF
PNT PNT PNT

3 IDT CCT NF
PNT PNT PNT

3 BCT NF NF
PNT PNT PNT

3 BCT NF ORT
PNT PNT ORT

3 BCT IDT ORT
PNT PNT ORT

3 NF SEP-GLC ORT
PNT DEL ORT

3 NF IDT ORT
PNT IDT ORT

3 AJT IDT ORT
PNT PNT ORT

3 IDT CTT NF
PNT PNT PNT

3 IDT IDT ORT
PNT IDT ORT

3 IDT IDT AST
PNT IDT AST

3 IDT AST ORT
PNT AST ORT

3 IDT NF NF
PNT PNT PNT

3 NF BCT IDT
PNT PNT IDT

3 NF CTT NF
PNT PNT PNT

3 NF IDT AST
PNT IDT AST

3 NF ORT IDT
PNT ORT IDT

3 NF NF NF
PNT PNT PNT

3 NFC NF NF
PNT PNT PNT

3 CTT NF NF
PNT PNT PNT

3 NFC NF IDT
PNT PNT IDT

3 NFC NF-NF IDT
PNT PNT IDT

3 NFC NF ORT
PNT PNT IDT

3 NFC NF-NF ORT
PNT PNT IDT

3 NF NFC NF
PNT PNT PNT

3 NF NF ORT
PNT PNT ORT

3 NF GLU ORT
PNT ORT ORT

3 PNT GLU ORT
PNT AST AST

3 NF NF AST
PNT PNT AST

3 PNT IDT-AJT IDT
PNT IDT IDT

3 NF IDT NF
PNT IDT NF

3 ALT IDT ORT
PNT IDT ORT

3 NFG AST ORT
PNT AST ORT

3 NF AST ORT
PNT AST ORT

3 PNT AST ORT
PNT AST ORT

3 NFG AJT ORT
PNT PNT ORT

3 NF AJT ORT
PNT PNT ORT

3 PNT AJT ORT
PNT PNT ORT

3 NF GLU NF
PNT PNT PNT

3 NFG NF ORT
PNT PNT ORT

3 NF NF IDT
PNT PNT IDT

3 NFG GLU ORT
PNT AST AST

3 NF GLU ORT
PNT AST AST

3 PN-PN AST ORT
PNT AST ORT

3 PN-NF AST ORT
PNT AST ORT

3 NF-PN AST ORT
PNT AST ORT

3 NF-NF AST ORT
PNT AST ORT

3 NF NF-NF ORT
PNT PNT ORT

4 BCT CTT CST CST
PNT PNT PNT PNT

4 PNT AST SEP-GLC ORT
PNT AST DEL ORT

4 NFG AJT SEP-GLC ORT
PNT PNT DEL ORT

4 NF AJT SEP-GLC ORT
PNT PNT DEL ORT

4 CST IDT NF ORT
PNT PNT PNT ORT

4 PNT AJT SEP-GLC ORT
PNT PNT DEL ORT

4 PNT IDT IDT ORT
PNT IDT IDT ORT

4 PNT IDT ORT ORT
PNT IDT ORT ORT 

4 NF ORT AST ORT
PNT AST AST ORT 

4 PNT ORT AST ORT
PNT AST AST ORT  

4 NF IDT ORT ORT
PNT IDT ORT ORT 

4 PNT IDT-AJT IDT ORT
PNT IDT IDT ORT

4 NF IDT-AJT IDT ORT
PNT IDT IDT ORT

4 NF IDT AST ORT
PNT IDT AST ORT

4 NF IDT SEP-GLC ORT
PNT IDT DEL ORT

4 PNT IDT SEP-GLC ORT
PNT IDT DEL ORT

4 NF IDT-AJT SEP-GLC ORT
PNT IDT-AJT DEL ORT

4 PNT IDT-AJT SEP-GLC ORT
PNT IDT-AJT DEL ORT

4 PNT IDT AST ORT
PNT IDT AST ORT

4 AJT IDT SEP-GLC ORT
PNT PNT DEL ORT

4 PNT ORT SEP-GLC ORT
PNT ORT DEL ORT

4 NF ORT SEP-GLC ORT
PNT ORT DEL ORT

4 NFG IDT SEP-GLC ORT
PNT IDT DEL ORT

4 PNT NF IDT ORT
PNT IDT ORT

4 AJT NF NF ORT
PNT PNT PNT ORT

4 NF AST SEP-GLC ORT
PNT AST DEL ORT

4 PN-PN AST SEP-GLC ORT
PNT AST DEL ORT

4 NF IDT IDT ORT
PNT IDT IDT ORT

4 PNT AJT IDT ORT
PNT AJT IDT ORT

4 PN-NF AST SEP-GLC ORT
PNT AST DEL ORT

4 NF-NF AST SEP-GLC ORT
PNT AST DEL ORT

4 NF NF NF NF
PNT PNT PNT PNT

4 NF NF NF ORT
PNT PNT PNT ORT

4 NF NF SEP-GLC ORT
PNT PNT DEL ORT

4 NF NF IDT ORT
PNT PNT IDT ORT

4 CNT NFG AST ORT
DEL PNT AST ORT

4 NF GLU NF ORT
PNT PNT PNT ORT

4 NF GLU ORT ORT
PNT AST AST ORT

5 NF NF NF NF NF
PNT PNT PNT PNT PNT

5 NF IDT ORT SEP-GLC ORT
PNT IDT ORT DEL ORT 

5 PNT IDT ORT SEP-GLC ORT
PNT IDT ORT DEL ORT 

5 PNT GLU ORT SEP-GLC ORT
PNT AST AST DEL ORT 

5 PNG IDT ORT SEP-GLC ORT
PNT IDT ORT DEL ORT 

5 NFG IDT ORT SEP-GLC ORT
PNT IDT ORT DEL ORT 

5 NF GLU NF SEP-GLC ORT
PNT PNT PNT DEL ORT

5 NF NF NF ORT ORT
PNT PNT PNT ORT ORT

5 CNT IDT IDT ORT ORT
PNT PNT IDT ORT ORT

5 CNT NF IDT ORT ORT
PNT PNT IDT ORT ORT

5 CNT IDT IDT AST ORT
PNT PNT IDT AST ORT

5 PNT ORT GLU ORT ORT
PNT AST AST AST ORT 

5 NF ORT GLU ORT ORT
PNT AST AST AST ORT 

5 NF NF AJT SEP-GLC ORT
PNT PNT PNT DEL ORT 

5 NF GLU ORT SEP-GLC ORT
PNT AST AST DEL ORT

5 NF IDT IDT-AJT SEP-GLC ORT
PNT IDT IDT DEL ORT

5 NF IDT-AJT IDT SEP-GLC ORT
PNT IDT IDT DEL ORT

5 NF IDT IDT SEP-GLC ORT
PNT IDT IDT DEL ORT

5 PNT IDT IDT SEP-GLC ORT
PNT IDT IDT DEL ORT

5 NF NF GLU NF ORT
PNT PNT PNT PNT ORT

5 PNT IDT IDT-AJT SEP-GLC ORT
PNT IDT IDT DEL ORT

5 PNT IDT-AJT IDT SEP-GLC ORT
PNT IDT IDT DEL ORT

5 NF CTT CST CST ORT
PNT PNT PNT PNT ORT

6 NF NF NF NF NF NF
PNT PNT PNT PNT PNT PNT

6 NF SEP-GLC NF GLU NF ORT
PNT PNT PNT PNT PNT ORT

6 NF NF GLU NF SEP-GLC ORT
PNT PNT PNT PNT DEL ORT

7 NF IDT GLU IDT ORT SEP-GLC ORT
PNT IDT IDT IDT ORT DEL ORT