-------------------------------------------------------------------------------
Test set: com.sun.mdm.matcher.comparators.base.UnicodeStringComparatorTest
-------------------------------------------------------------------------------
Tests run: 1, Failures: 0, Errors: 0, Skipped: 0, Time elapsed: 0.115 sec
