<?xml version="1.0" encoding="UTF-8" ?>
<testsuite failures="0" time="0.025" errors="0" skipped="0" tests="1" name="com.sun.mdm.matcher.comparators.base.CondensedSSNComparatorTest">
  <properties>
    <property name="java.vendor" value="Sun Microsystems Inc."/>
    <property name="env.SESSION_MANAGER" value="local/nheron-Pro:@/tmp/.ICE-unix/1895,unix/nheron-Pro:/tmp/.ICE-unix/1895"/>
    <property name="localRepository" value="/home/nheron/.m2/repository"/>
    <property name="sun.java.launcher" value="SUN_STANDARD"/>
    <property name="sun.management.compiler" value="HotSpot Tiered Compilers"/>
    <property name="os.name" value="Linux"/>
    <property name="sun.boot.class.path" value="/home/nheron/java/jdk1.6.0_24/jre/lib/resources.jar:/home/nheron/java/jdk1.6.0_24/jre/lib/rt.jar:/home/nheron/java/jdk1.6.0_24/jre/lib/sunrsasign.jar:/home/nheron/java/jdk1.6.0_24/jre/lib/jsse.jar:/home/nheron/java/jdk1.6.0_24/jre/lib/jce.jar:/home/nheron/java/jdk1.6.0_24/jre/lib/charsets.jar:/home/nheron/java/jdk1.6.0_24/jre/lib/modules/jdk.boot.jar:/home/nheron/java/jdk1.6.0_24/jre/classes"/>
    <property name="env.PWD" value="/home/nheron/workspace-mural-build/final/open-dm-dq/trunk/matcher"/>
    <property name="env.XDG_SESSION_COOKIE" value="b20057b2719003fd39331d6400000009-1309191474.907052-1190500342"/>
    <property name="sun.desktop" value="gnome"/>
    <property name="env.LANG" value="fr_FR.utf8"/>
    <property name="java.vm.specification.vendor" value="Sun Microsystems Inc."/>
    <property name="java.runtime.version" value="1.6.0_24-b07"/>
    <property name="env.DEFAULTS_PATH" value="/usr/share/gconf/gnome.default.path"/>
    <property name="env.DISPLAY" value=":0.0"/>
    <property name="user.name" value="nheron"/>
    <property name="env.JETTY_HOME" value="/home/nheron/java/jetty-distribution-7.0.2"/>
    <property name="env._" value="/home/nheron/java/apache-maven-2.0.9-openesb/bin/mvn"/>
    <property name="env.USER" value="nheron"/>
    <property name="env.SHELL" value="/bin/bash"/>
    <property name="env.DESKTOP_SESSION" value="gnome"/>
    <property name="env.XDG_DATA_DIRS" value="/usr/share/gnome:/usr/local/share/:/usr/share/"/>
    <property name="env.NLSPATH" value="/usr/dt/lib/nls/msg/%L/%N.cat"/>
    <property name="env.GRIDGAIN_HOME" value="/home/nheron/java/gridgain-2.1.1"/>
    <property name="env.PATH" value="/home/nheron/java/jdk1.6.0_24/bin/:/home/nheron/java/apache-ant-1.7.1/bin/:/home/nheron/java/apache-maven-2.0.9-openesb/bin:/home/nheron/java/jdk1.6.0_24/bin/:/home/nheron/java/apache-ant-1.7.1/bin/:/home/nheron/java/apache-maven-3.0.3/bin:/usr/local/sbin:/usr/local/bin:/usr/sbin:/usr/bin:/sbin:/bin:/usr/games:/home/nheron/java/grails-1.1.1/bin:/home/nheron/java/groovy-1.6.1/bin:/home/nheron/java/gwt-linux-1.5.3/bin:/var/lib/gems/1.8/bin:/home/nheron/java/cloudbees/cloudbees-sdk-0.6.0:/home/nheron/java/grails-1.1.1/bin:/home/nheron/java/groovy-1.6.1/bin:/home/nheron/java/gwt-linux-1.5.3/bin:/var/lib/gems/1.8/bin:/home/nheron/java/cloudbees/cloudbees-sdk-0.6.0"/>
    <property name="user.language" value="fr"/>
    <property name="sun.boot.library.path" value="/home/nheron/java/jdk1.6.0_24/jre/lib/i386"/>
    <property name="classworlds.conf" value="/home/nheron/java/apache-maven-2.0.9-openesb/bin/m2.conf"/>
    <property name="java.version" value="1.6.0_24"/>
    <property name="user.timezone" value="Europe/Paris"/>
    <property name="env.DBUS_SESSION_BUS_ADDRESS" value="unix:abstract=/tmp/dbus-BBLgYCiaXS,guid=69533c86b15efd1de20e2c5f0000008b"/>
    <property name="sun.arch.data.model" value="32"/>
    <property name="env.SSH_AGENT_PID" value="1925"/>
    <property name="java.endorsed.dirs" value="/home/nheron/java/jdk1.6.0_24/jre/lib/endorsed"/>
    <property name="env.JDK_HOME" value="/home/nheron/java/jdk1.6.0_24"/>
    <property name="sun.cpu.isalist" value=""/>
    <property name="sun.jnu.encoding" value="UTF-8"/>
    <property name="file.encoding.pkg" value="sun.io"/>
    <property name="env.SHLVL" value="1"/>
    <property name="file.separator" value="/"/>
    <property name="java.specification.name" value="Java Platform API Specification"/>
    <property name="env.GROOVY_HOME" value="/home/nheron/java/groovy-1.6.1"/>
    <property name="env.GNOME_DESKTOP_SESSION_ID" value="this-is-deprecated"/>
    <property name="java.class.version" value="50.0"/>
    <property name="env.GDMSESSION" value="gnome"/>
    <property name="env.GDM_KEYBOARD_LAYOUT" value="fr	oss"/>
    <property name="user.country" value="FR"/>
    <property name="env.GNOME_KEYRING_PID" value="1876"/>
    <property name="java.home" value="/home/nheron/java/jdk1.6.0_24/jre"/>
    <property name="java.vm.info" value="mixed mode"/>
    <property name="env.LOGNAME" value="nheron"/>
    <property name="os.version" value="2.6.35-28-generic-pae"/>
    <property name="env.HADOOP_HOME" value="/home/nheron/java/hadoop-0.20.1"/>
    <property name="path.separator" value=":"/>
    <property name="java.vm.version" value="19.1-b02"/>
    <property name="env.BEES_HOME" value="/home/nheron/java/cloudbees/cloudbees-sdk-0.6.0"/>
    <property name="env.JAVA_HOME" value="/home/nheron/java/jdk1.6.0_24"/>
    <property name="java.awt.printerjob" value="sun.print.PSPrinterJob"/>
    <property name="env.TERM" value="xterm"/>
    <property name="env.WINDOWPATH" value="7"/>
    <property name="sun.io.unicode.encoding" value="UnicodeLittle"/>
    <property name="env.GDM_LANG" value="fr_FR.utf8"/>
    <property name="user.home" value="/home/nheron"/>
    <property name="env.OLDPWD" value="/home/nheron/workspace-mural-build/final/open-dm-dq/trunk/matcher"/>
    <property name="java.specification.vendor" value="Sun Microsystems Inc."/>
    <property name="env.ANT_ROOT" value="/home/nheron/java/apache-ant-1.7.1"/>
    <property name="env.WINDOWID" value="92304927"/>
    <property name="java.library.path" value="/home/nheron/java/jdk1.6.0_24/jre/lib/i386/server:/home/nheron/java/jdk1.6.0_24/jre/lib/i386:/home/nheron/java/jdk1.6.0_24/jre/../lib/i386:/usr/java/packages/lib/i386:/lib:/usr/lib"/>
    <property name="java.vendor.url" value="http://java.sun.com/"/>
    <property name="java.vm.vendor" value="Sun Microsystems Inc."/>
    <property name="java.runtime.name" value="Java(TM) SE Runtime Environment"/>
    <property name="maven.home" value="/home/nheron/java/apache-maven-2.0.9-openesb"/>
    <property name="java.class.path" value="/home/nheron/java/apache-maven-2.0.9-openesb/boot/classworlds-1.1.jar"/>
    <property name="env.XFILESEARCHPATH" value="/usr/dt/app-defaults/%L/Dt"/>
    <property name="java.vm.specification.name" value="Java Virtual Machine Specification"/>
    <property name="java.vm.specification.version" value="1.0"/>
    <property name="sun.os.patch.level" value="unknown"/>
    <property name="sun.cpu.endian" value="little"/>
    <property name="env.HOME" value="/home/nheron"/>
    <property name="env.ANT_HOME" value="/home/nheron/java/apache-ant-1.7.1"/>
    <property name="surefire.test.class.path" value="/home/nheron/workspace-mural-build/final/open-dm-dq/trunk/matcher/target/test-classes:/home/nheron/workspace-mural-build/final/open-dm-dq/trunk/matcher/target/classes:/home/nheron/.m2/repository/junit/junit/3.8.1/junit-3.8.1.jar:/home/nheron/.m2/repository/org/apache/lucene/lucene-core/2.2.0/lucene-core-2.2.0.jar:/home/nheron/.m2/repository/net/java/hulp/i18ntask/net.java.hulp.i18ntask/2.1-SNAPSHOT/net.java.hulp.i18ntask-2.1-SNAPSHOT.jar:/home/nheron/.m2/repository/net/java/hulp/i18n/net.java.hulp.i18n/2.1-SNAPSHOT/net.java.hulp.i18n-2.1-SNAPSHOT.jar:"/>
    <property name="java.io.tmpdir" value="/tmp"/>
    <property name="env.LD_LIBRARY_PATH" value="/home/nheron/java/jdk1.6.0_24/jre/lib/i386/server:/home/nheron/java/jdk1.6.0_24/jre/lib/i386:/home/nheron/java/jdk1.6.0_24/jre/../lib/i386"/>
    <property name="env.RIO_HOME" value="/home/nheron/java/rio-4.0-M3"/>
    <property name="java.vendor.url.bug" value="http://java.sun.com/cgi-bin/bugreport.cgi"/>
    <property name="env.SSH_AUTH_SOCK" value="/tmp/keyring-42R3uj/ssh"/>
    <property name="java.awt.graphicsenv" value="sun.awt.X11GraphicsEnvironment"/>
    <property name="os.arch" value="i386"/>
    <property name="java.ext.dirs" value="/home/nheron/java/jdk1.6.0_24/jre/lib/ext:/usr/java/packages/lib/ext"/>
    <property name="user.dir" value="/home/nheron/workspace-mural-build/final/open-dm-dq/trunk/matcher"/>
    <property name="env.XAUTHORITY" value="/var/run/gdm/auth-for-nheron-mNwnYW/database"/>
    <property name="env.MAVEN_HOME" value="/home/nheron/java/apache-maven-2.0.9-openesb"/>
    <property name="env.MANDATORY_PATH" value="/usr/share/gconf/gnome.mandatory.path"/>
    <property name="env.GTK_MODULES" value="canberra-gtk-module"/>
    <property name="line.separator" value="
"/>
    <property name="java.vm.name" value="Java HotSpot(TM) Server VM"/>
    <property name="env.COLORTERM" value="gnome-terminal"/>
    <property name="basedir" value="/home/nheron/workspace-mural-build/final/open-dm-dq/trunk/matcher"/>
    <property name="env.GWT_HOME" value="/home/nheron/java/gwt-linux-1.5.3"/>
    <property name="env.ORBIT_SOCKETDIR" value="/tmp/orbit-nheron"/>
    <property name="env.USERNAME" value="nheron"/>
    <property name="file.encoding" value="UTF-8"/>
    <property name="env.GRAILS_HOME" value="/home/nheron/java/grails-1.1.1"/>
    <property name="java.specification.version" value="1.6"/>
    <property name="env.CLOUDBASE_HOME" value="/home/nheron/java/cloudbase-1.3.1"/>
    <property name="env.GNOME_KEYRING_CONTROL" value="/tmp/keyring-42R3uj"/>
    <property name="env.XDG_CONFIG_DIRS" value="/etc/xdg/xdg-gnome:/etc/xdg"/>
  </properties>
  <testcase time="0.024" classname="com.sun.mdm.matcher.comparators.base.CondensedSSNComparatorTest" name="testCondensedSSNComparator"/>
</testsuite>