2197                0 1 0 0 4 1 0 0 0 0    jrsr/conj/first/last
2197                0 3 0 0 4 0 0 0 0 0    jrsr/conj/first/last
261967              0 1 2 0 6 1 0 0 0 0    jrsr/initial/conj/first/initial/last
261967              0 4 5 0 6 0 0 0 0 0    jrsr/initial/conj/first/initial/last
26197               0 1 2 0 5 1 0 0 0 0    jrsr/initial/conj/first/last
26197               0 4 0 0 5 0 0 0 0 0    jrsr/initial/conj/first/last
267                 0 1 2 0 3 1 0 0 0 0    jrsr/initial/last
27                  0 1 0 0 2 1 0 0 0 0    jrsr/last
3137                1 0 0 0 4 0 0 0 0 0    title/conj/title/last
3137                3 0 0 0 4 0 0 0 0 0    title/conj/title/last
31372               1 0 0 0 4 5 0 0 0 0    title/conj/title/last
31372               3 0 0 0 4 0 0 0 0 0    title/conj/title/last/jrsr
313724              1 0 0 0 4 5 6 0 0 0    title/conj/title/last
313724              3 0 0 0 4 0 0 0 0 0    title/conj/title/last/jrsr
31374               1 0 0 0 4 0 5 0 0 0    title/conj/title/last/suffix
31374               3 0 0 0 4 0 0 0 0 0    title/conj/title/last/suffix
31387               1 0 0 4 5 0 0 0 0 0    title/conj/title/prefix/last
31387               3 0 0 4 5 0 0 0 0 0    title/conj/title/prefix/last
313872              1 0 0 4 5 6 0 0 0 0    title/conj/title/prefix/last/jrsr
313872              3 0 0 4 5 0 0 0 0 0    title/conj/title/prefix/last/jrsr
3138724             1 0 0 4 5 6 7 0 0 0    title/conj/title/prefix/last/jrsr
3138724             3 0 0 4 5 0 0 0 0 0    title/conj/title/prefix/last/jrsr
313874              1 0 0 4 5 0 6 0 0 0    title/conj/title/prefix/last/suffix
313874              3 0 0 4 5 0 0 0 0 0    title/conj/title/prefix/last/suffix
31967               0 3 4 0 5 0 0 0 0 0    title/conj/first/initial/last
31967               1 0 0 0 5 0 0 0 0 0    title/conj/first/initial/last
3197                0 3 0 0 4 0 0 0 0 0    title/conj/first/last
3197                1 0 0 0 4 0 0 0 0 0    title/conj/first/last
361367              1 2 0 0 6 0 0 0 0 0    title/initial/conj/title/initial/last
361367              4 5 0 0 6 0 0 0 0 0    title/initial/conj/title/initial/last
3613672             1 2 0 0 6 7 0 0 0 0    title/initial/conj/title/initial/last/jrsr
3613672             4 5 0 0 6 0 0 0 0 0    title/initial/conj/title/initial/last/jrsr
36136724            1 2 0 0 6 7 8 0 0 0    title/initial/conj/title/initial/last/jrsr
36136724            4 5 0 0 6 0 0 0 0 0    title/initial/conj/title/initial/last/jrsr
3613674             1 2 0 0 6 0 7 0 0 0    title/initial/conj/title/initial/last/suffix
3613674             4 5 0 0 6 0 0 0 0 0    title/initial/conj/title/initial/last/suffix
3613687             1 2 0 6 7 0 0 0 0 0    title/initial/conj/title/initial/prefix/last
3613687             4 5 0 6 7 0 0 0 0 0    title/initial/conj/title/initial/prefix/last
36136872            1 2 0 6 7 8 0 0 0 0    title/initial/conj/title/initial/prefix/last/jrsr
36136872            4 5 0 6 7 0 0 0 0 0    title/initial/conj/title/initial/prefix/last/jrsr
361368724           1 2 0 6 7 8 9 0 0 0    title/initial/conj/title/initial/prefix/last/jrsr
361368724           4 5 0 6 7 0 0 0 0 0    title/initial/conj/title/initial/prefix/last/jrsr
36136874            1 2 0 6 7 0 8 0 0 0    title/initial/conj/title/initial/prefix/last/suffix
36136874            4 5 0 6 7 0 0 0 0 0    title/initial/conj/title/initial/prefix/last/suffix
361967              0 4 5 0 6 0 0 0 0 0    title/initial/conj/first/initial/last
361967              1 2 0 0 6 0 0 0 0 0    title/initial/conj/first/initial/last
36613667            1 2 3 0 8 0 0 0 0 0    title/initial/initial/conj/title/initial/initial/last
36613667            5 6 7 0 8 0 0 0 0 0    title/initial/initial/conj/title/initial/initial/last
366136672           1 2 3 0 8 9 0 0 0 0    title/initial/initial/conj/title/initial/initial/last/jrsr
366136672           5 6 7 0 8 0 0 0 0 0    title/initial/initial/conj/title/initial/initial/last/jrsr
3661366724          1 2 3 0 8 910 0 0 0    title/initial/initial/conj/title/initial/initial/last/jrsr
3661366724          5 6 7 0 8 0 0 0 0 0    title/initial/initial/conj/title/initial/initial/last/jrsr
366136674           1 2 3 0 8 0 9 0 0 0    title/initial/initial/conj/title/initial/initial/last/suffix
366136674           5 6 7 0 8 0 0 0 0 0    title/initial/initial/conj/title/initial/initial/last/suffix
366136687           1 2 3 8 9 0 0 0 0 0    title/initial/initial/conj/title/initial/initial/prefix/last
366136687           5 6 7 8 9 0 0 0 0 0    title/initial/initial/conj/title/initial/initial/prefix/last
3661366872          1 2 3 8 910 0 0 0 0    title/initial/initial/conj/title/initial/initial/prefix/last/jrsr
3661366872          5 6 7 8 9 0 0 0 0 0    title/initial/initial/conj/title/initial/initial/prefix/last/jrsr
36613668724         1 2 3 8 91011 0 0 0    title/initial/initial/conj/title/initial/initial/prefix/last/jrsr
36613668724         5 6 7 8 9 0 0 0 0 0    title/initial/initial/conj/title/initial/initial/prefix/last/jrsr
3661366874          1 2 3 8 9 010 0 0 0    title/initial/initial/conj/title/initial/initial/prefix/last/suffix
3661366874          5 6 7 8 9 0 0 0 0 0    title/initial/initial/conj/title/initial/initial/prefix/last/suffix
3661667             0 5 6 0 7 0 0 0 0 0    title/initial/initial/conj/initial/initial/last
3661667             1 2 3 0 7 0 0 0 0 0    title/initial/initial/conj/initial/initial/last
366197              0 5 0 0 6 0 0 0 0 0    title/initial/initial/conj/first/last
366197              1 2 3 0 6 0 0 0 0 0    title/initial/initial/conj/first/last
3667                1 2 3 0 4 0 0 0 0 0    title/initial/initial/last
36672               1 2 3 0 4 5 0 0 0 0    title/initial/initial/last/jrsr
366724              1 2 3 0 4 5 6 0 0 0    title/initial/initial/last/jrsr/suffix
36674               1 2 3 0 4 0 5 0 0 0    title/initial/initial/last/suffix
36687               1 2 3 4 5 0 0 0 0 0    title/initial/initial/prefix/last
366872              1 2 3 4 5 6 0 0 0 0    title/initial/initial/prefix/last/jrsr
3668724             1 2 3 4 5 6 7 0 0 0    title/initial/initial/prefix/last/jrsr/suffix
366874              1 2 3 4 5 0 6 0 0 0    title/initial/initial/prefix/last/suffix
36691397            1 2 3 0 4 0 0 0 0 0    title/initial/initial/first(last)/conj/title/first/last
36691397            6 7 0 0 8 0 0 0 0 0    title/initial/initial/first(last)/conj/title/first/last
367                 1 2 0 0 3 0 0 0 0 0    title/initial/last
3672                1 2 0 0 3 4 0 0 0 0    title/initial/last/jrsr
36724               1 2 0 0 3 4 5 0 0 0    title/initial/last/jrsr/suffix
3674                1 2 0 0 3 0 4 0 0 0    title/initial/last/suffix
3687                1 2 0 3 4 0 0 0 0 0    title/initial/prefix/last
36872               1 2 0 3 4 5 0 0 0 0    title/initial/prefix/last/jrsr
368724              1 2 0 3 4 5 6 0 0 0    title/initial/prefix/last/jrsr/suffix
36874               1 2 0 3 4 0 5 0 0 0    title/initial/prefix/last/suffix
36913697            1 2 3 0 8 0 0 0 0 0    title/initial/first/conj/title/initial/first/last
36913697            5 6 7 0 8 0 0 0 0 0    title/initial/first/conj/title/initial/first/last
369136972           1 2 3 0 8 9 0 0 0 0    title/initial/first/conj/title/initial/first/last/jrsr
369136972           5 6 7 0 8 0 0 0 0 0    title/initial/first/conj/title/initial/first/last/jrsr
3691369724          1 2 3 0 8 910 0 0 0    title/initial/first/conj/title/initial/first/last/jrsr
3691369724          5 6 7 0 8 0 0 0 0 0    title/initial/first/conj/title/initial/first/last/jrsr
369136974           1 2 3 0 8 0 9 0 0 0    title/initial/first/conj/title/initial/first/last/suffix
369136974           5 6 7 0 8 0 0 0 0 0    title/initial/first/conj/title/initial/first/last/suffix
369136987           1 2 3 8 9 0 0 0 0 0    title/initial/first/conj/title/initial/first/prefix/last
369136987           5 6 7 8 9 0 0 0 0 0    title/initial/first/conj/title/initial/first/prefix/last
3691369872          1 2 3 8 910 0 0 0 0    title/initial/first/conj/title/initial/first/prefix/last/jrsr
3691369872          5 6 7 8 9 0 0 0 0 0    title/initial/first/conj/title/initial/first/prefix/last/jrsr
36913698724         1 2 3 8 91011 0 0 0    title/initial/first/conj/title/initial/first/prefix/last/jrsr
36913698724         5 6 7 8 9 0 0 0 0 0    title/initial/first/conj/title/initial/first/prefix/last/jrsr
3691369874          1 2 3 8 9 010 0 0 0    title/initial/first/conj/title/initial/first/prefix/last/suffix
3691369874          5 6 7 8 9 0 0 0 0 0    title/initial/first/conj/title/initial/first/prefix/last/suffix
3697                1 2 3 0 4 0 0 0 0 0    title/initial/first/last
36972               1 2 3 0 4 5 0 0 0 0    title/initial/first/last/jrsr
369724              1 2 3 0 4 5 6 0 0 0    title/initial/first/last/jrsr/suffix
36974               1 2 3 0 4 0 5 0 0 0    title/initial/first/last/suffix
36987               1 2 3 4 5 0 0 0 0 0    title/initial/first/prefix/last
369872              1 2 3 4 5 6 0 0 0 0    title/initial/first/prefix/last/jrsr
3698724             1 2 3 4 5 6 7 0 0 0    title/initial/first/prefix/last/jrsr/suffix
369874              1 2 3 4 5 0 6 0 0 0    title/initial/first/prefix/last/suffix
37                  1 0 0 0 2 0 0 0 0 0    title/last name
372                 1 0 0 0 2 3 0 0 0 0    title/last name/jrsr
3724                1 0 0 0 2 3 4 0 0 0    title/last name/jrsr/suffix
374                 1 0 0 0 2 0 3 0 0 0    title/last name/suffix
3867                1 2 3 0 4 0 0 0 0 0    title/prefix/initial/last
38672               1 2 3 0 4 5 0 0 0 0    title/prefix/initial/last/jrsr
386724              1 2 3 0 4 5 6 0 0 0    title/prefix/initial/last/jrsr/suffix
38674               1 2 3 0 4 0 5 0 0 0    title/prefix/initial/last/suffix
387                 1 2 0 0 3 0 0 0 0 0    title/prefix/last
3872                1 2 0 0 3 4 0 0 0 0    title/prefix/last/jrsr
38724               1 2 0 0 3 4 5 0 0 0    title/prefix/last/jrsr/suffix
3874                1 2 0 0 3 0 4 0 0 0    title/prefix/last/suffix
3897                1 2 3 0 4 0 0 0 0 0    title/prefix/first/last
38972               1 2 3 0 4 5 0 0 0 0    title/prefix/first/last/jrsr
389724              1 2 3 0 4 5 6 0 0 0    title/prefix/first/last/jrsr/suffix
38974               1 2 3 0 4 0 5 0 0 0    title/prefix/first/last/suffix
391397              1 2 0 0 6 0 0 0 0 0    title/first/conj/title/first/last
391397              4 5 0 0 6 0 0 0 0 0    title/first/conj/title/first/last
3913972             1 2 0 0 6 7 0 0 0 0    title/first/conj/title/first/last/jrsr
3913972             4 5 0 0 6 0 0 0 0 0    title/first/conj/title/first/last/jrsr
39139724            1 2 0 0 6 7 8 0 0 0    title/first/conj/title/first/last/jrsr
39139724            4 5 0 0 6 0 0 0 0 0    title/first/conj/title/first/last/jrsr
3913974             1 2 0 0 6 0 7 0 0 0    title/first/conj/title/first/last/suffix
3913974             4 5 0 0 6 0 0 0 0 0    title/first/conj/title/first/last/suffix
3913987             1 2 0 6 7 0 0 0 0 0    title/first/conj/title/first/prefix/last
3913987             4 5 0 6 7 0 0 0 0 0    title/first/conj/title/first/prefix/last
39139872            1 2 0 6 7 8 0 0 0 0    title/first/conj/title/first/prefix/last/jrsr
39139872            4 5 0 6 7 0 0 0 0 0    title/first/conj/title/first/prefix/last/jrsr
391398724           1 2 0 6 7 8 9 0 0 0    title/first/conj/title/first/prefix/last/jrsr
391398724           4 5 0 6 7 0 0 0 0 0    title/first/conj/title/first/prefix/last/jrsr
39139874            1 2 0 6 7 0 8 0 0 0    title/first/conj/title/first/prefix/last/suffix
39139874            4 5 0 6 7 0 0 0 0 0    title/first/conj/title/first/prefix/last/suffix
391967              0 4 5 0 6 0 0 0 0 0    title/first/conj/first/initial/last
391967              1 2 0 0 6 0 0 0 0 0    title/first/conj/first/initial/last
39197               0 4 0 0 5 0 0 0 0 0    title/first/conj/fisrt/last
39197               1 2 0 0 5 0 0 0 0 0    title/first/conj/fisrt/last
39613967            1 2 3 0 8 0 0 0 0 0    title/first/initial/conj/title/first/initial/last
39613967            5 6 7 0 8 0 0 0 0 0    title/first/initial/conj/title/first/initial/last
396139672           1 2 3 0 8 9 0 0 0 0    title/first/initial/conj/title/first/initial/last/jrsr
396139672           5 6 7 0 8 0 0 0 0 0    title/first/initial/conj/title/first/initial/last/jrsr
3961396724          1 2 3 0 8 910 0 0 0    title/first/initial/conj/title/first/initial/last/jrsr
3961396724          5 6 7 0 8 0 0 0 0 0    title/first/initial/conj/title/first/initial/last/jrsr
396139674           1 2 3 0 8 0 9 0 0 0    title/first/initial/conj/title/first/initial/last/suffix
396139674           5 6 7 0 8 0 0 0 0 0    title/first/initial/conj/title/first/initial/last/suffix
396139687           1 2 3 8 9 0 0 0 0 0    title/first/initial/conj/title/first/initial/prefix/last
396139687           5 6 7 8 9 0 0 0 0 0    title/first/initial/conj/title/first/initial/prefix/last
3961396872          1 2 3 8 910 0 0 0 0    title/first/initial/conj/title/first/initial/prefix/last/jrsr
3961396872          5 6 7 8 9 0 0 0 0 0    title/first/initial/conj/title/first/initial/prefix/last/jrsr
39613968724         1 2 3 8 91011 0 0 0    title/first/initial/conj/title/first/initial/prefix/last/jrsr
39613968724         5 6 7 8 9 0 0 0 0 0    title/first/initial/conj/title/first/initial/prefix/last/jrsr
3961396874          1 2 3 8 9 010 0 0 0    title/first/initial/conj/title/first/initial/prefix/last/suffix
3961396874          5 6 7 8 9 0 0 0 0 0    title/first/initial/conj/title/first/initial/prefix/last/suffix
3961967             0 5 6 0 7 0 0 0 0 0    title/first/initial/conj/first/initial/last
3961967             1 2 3 0 7 0 0 0 0 0    title/first/initial/conj/first/initial/last
396197              0 5 0 0 6 0 0 0 0 0    title/first/initial/conj/first/last
396197              1 2 3 0 6 0 0 0 0 0    title/first/initial/conj/first/last
3967                1 2 3 0 4 0 0 0 0 0    title/first/initial/last
39672               1 2 3 0 4 5 0 0 0 0    title/first/initial/last/jrsr
396724              1 2 3 0 4 5 6 0 0 0    title/first/initial/last/jrsr/suffix
39674               1 2 3 0 4 0 5 0 0 0    title/first/initial/last/suffix
39687               1 2 3 4 5 0 0 0 0 0    title/first/initial/prefix/last
396872              1 2 3 4 5 6 0 0 0 0    title/first/initial/prefix/last/jrsr
3968724             1 2 3 4 5 6 7 0 0 0    title/first/initial/prefix/last/jrsr/suffix
396874              1 2 3 4 5 0 6 0 0 0    title/first/initial/prefix/last/suffix
39691967            0 6 7 0 8 0 0 0 0 0    title/first/middle/first(last)/conj/first/initial/last
39691967            1 2 3 0 4 0 0 0 0 0    title/first/middle/first(last)/conj/first/initial/last
3969197             0 6 0 0 7 0 0 0 0 0    title/first/middle/first(last)/conj/first/last
3969197             1 2 3 0 4 0 0 0 0 0    title/first/middle/first(last)/conj/first/last
397                 1 2 0 0 3 0 0 0 0 0    title/first/last
3972                1 2 0 0 3 4 0 0 0 0    title/first/last/jrsr
39724               1 2 0 0 3 4 5 0 0 0    title/first/last/jrsr/suffix
3974                1 2 0 0 3 0 4 0 0 0    title/first/last/suffix
3975                1 2 0 0 3 0 0 0 0 1    title/first/last/deceased
3987                1 2 0 3 4 0 0 0 0 0    title/first/prefix/last
39872               1 2 0 3 4 5 0 0 0 0    title/first/prefix/last/jrsr
398724              1 2 0 3 4 5 6 0 0 0    title/first/prefix/last/jrsr/suffix
39874               1 2 0 3 4 0 5 0 0 0    title/first/prefix/last/suffix
39913997            1 2 3 0 8 0 0 0 0 0    title/first/first/conj/title/first/first/last
39913997            5 6 7 0 8 0 0 0 0 0    title/first/first/conj/title/first/first/last
399139972           1 2 3 0 8 9 0 0 0 0    title/first/first/conj/title/first/first/last/jrsr
399139972           5 6 7 0 8 0 0 0 0 0    title/first/first/conj/title/first/first/last/jrsr
3991399724          1 2 3 0 8 910 0 0 0    title/first/first/conj/title/first/first/last/jrsr
3991399724          5 6 7 0 8 0 0 0 0 0    title/first/first/conj/title/first/first/last/jrsr
399139974           1 2 3 0 8 0 9 0 0 0    title/first/first/conj/title/first/first/last/suffix
399139974           5 6 7 0 8 0 0 0 0 0    title/first/first/conj/title/first/first/last/suffix
399139987           1 2 3 8 9 0 0 0 0 0    title/first/first/conj/title/first/first/prefix/last
399139987           5 6 7 8 9 0 0 0 0 0    title/first/first/conj/title/first/first/prefix/last
3991399872          1 2 3 8 910 0 0 0 0    title/first/first/conj/title/first/first/prefix/last/jrsr
3991399872          5 6 7 8 9 0 0 0 0 0    title/first/first/conj/title/first/first/prefix/last/jrsr
39913998724         1 2 3 8 91011 0 0 0    title/first/first/conj/title/first/first/prefix/last/jrsr
39913998724         5 6 7 8 9 0 0 0 0 0    title/first/first/conj/title/first/first/prefix/last/jrsr
3991399874          1 2 3 8 9 010 0 0 0    title/first/first/conj/title/first/first/prefix/last/suffix
3991399874          5 6 7 8 9 0 0 0 0 0    title/first/first/conj/title/first/first/prefix/last/suffix
3997                1 2 3 0 4 0 0 0 0 0    title/first/first/last
39972               1 2 3 0 4 5 0 0 0 0    title/first/first/last/jrsr
399724              1 2 3 0 4 5 6 0 0 0    title/first/first/last/jrsr/suffix
39974               1 2 3 0 4 0 5 0 0 0    title/first/first/last/suffix
39987               1 2 3 4 5 0 0 0 0 0    title/first/first/prefix/last
399872              1 2 3 4 5 6 0 0 0 0    title/first/first/prefix/last/jrsr
3998724             1 2 3 4 5 6 7 0 0 0    title/first/first/prefix/last/jrsr/suffix
399874              1 2 3 4 5 0 6 0 0 0    title/first/first/prefix/last/suffix
61667               0 1 0 0 5 0 0 0 0 0    initial/conj/initial/initial/last
61667               0 3 4 0 5 0 0 0 0 0    initial/conj/initial/initial/last
616672              0 1 0 0 5 6 0 0 0 0    initial/conj/initial/initial/last/jrsr
616672              0 3 4 0 5 0 0 0 0 0    initial/conj/initial/initial/last/jrsr
6166724             0 1 0 0 5 6 7 0 0 0    initial/conj/initial/initial/last/jrsr
6166724             0 3 4 0 5 0 0 0 0 0    initial/conj/initial/initial/last/jrsr
616674              0 1 0 0 5 0 6 0 0 0    initial/conj/initial/initial/last/suffix
616674              0 3 4 0 5 0 0 0 0 0    initial/conj/initial/initial/last/suffix
616687              0 1 0 5 6 0 0 0 0 0    initial/conj/initial/initial/prefix/last
616687              0 3 4 5 6 0 0 0 0 0    initial/conj/initial/initial/prefix/last
6166872             0 1 0 5 6 7 0 0 0 0    initial/conj/initial/initial/prefix/last/jrsr
6166872             0 3 4 5 6 0 0 0 0 0    initial/conj/initial/initial/prefix/last/jrsr
61668724            0 1 0 5 6 7 8 0 0 0    initial/conj/initial/initial/prefix/last/jrsr
61668724            0 3 4 5 6 0 0 0 0 0    initial/conj/initial/initial/prefix/last/jrsr
6166874             0 1 0 5 6 0 7 0 0 0    initial/conj/initial/initial/prefix/last/suffix
6166874             0 3 4 5 6 0 0 0 0 0    initial/conj/initial/initial/prefix/last/suffix
6167                0 1 0 0 4 0 0 0 0 0    initial/conj/initial/last
6167                0 3 0 0 4 0 0 0 0 0    initial/conj/initial/last
61672               0 1 0 0 4 5 0 0 0 0    initial/conj/initial/last/jrsr
61672               0 3 0 0 4 0 0 0 0 0    initial/conj/initial/last/jrsr
616724              0 1 0 0 4 5 6 0 0 0    initial/conj/initial/last/jrsr
616724              0 3 0 0 4 0 0 0 0 0    initial/conj/initial/last/jrsr
61674               0 1 0 0 4 0 5 0 0 0    initial/conj/initial/last/suffix
61674               0 3 0 0 4 0 0 0 0 0    initial/conj/initial/last/suffix
61687               0 1 0 4 5 0 0 0 0 0    initial/conj/initial/prefix/last
61687               0 3 0 4 5 0 0 0 0 0    initial/conj/initial/prefix/last
616872              0 1 0 4 5 6 0 0 0 0    initial/conj/initial/prefix/last/jrsr
616872              0 3 0 4 5 0 0 0 0 0    initial/conj/initial/prefix/last/jrsr
6168724             0 1 0 4 5 6 7 0 0 0    initial/conj/initial/prefix/last/jrsr
6168724             0 3 0 4 5 0 0 0 0 0    initial/conj/initial/prefix/last/jrsr
616874              0 1 0 4 5 0 6 0 0 0    initial/conj/initial/prefix/last/suffix
616874              0 3 0 4 5 0 0 0 0 0    initial/conj/initial/prefix/last/suffix
6197                0 1 0 0 4 0 0 0 0 0    initital/conj/first/last
6197                0 3 0 0 4 0 0 0 0 0    initital/conj/first/last
61997               0 1 0 0 5 0 0 0 0 0    initital/conj/first/first/last
61997               0 3 4 0 5 0 0 0 0 0    initital/conj/first/first/last
6613667             0 1 2 0 7 0 0 0 0 0    initial/initial/conj/title/initial/initial/last
6613667             4 5 6 0 7 0 0 0 0 0    initial/initial/conj/title/initial/initial/last
661667              0 1 2 0 6 0 0 0 0 0    initial/initial/conj/initial/initial/last
661667              0 4 5 0 6 0 0 0 0 0    initial/initial/conj/initial/initial/last
6616672             0 1 2 0 6 7 0 0 0 0    initial/initial/conj/initial/initial/last/jrsr
6616672             0 4 5 0 6 0 0 0 0 0    initial/initial/conj/initial/initial/last/jrsr
66166724            0 1 2 0 6 7 8 0 0 0    initial/initial/conj/initial/initial/last/jrsr
66166724            0 4 5 0 6 0 0 0 0 0    initial/initial/conj/initial/initial/last/jrsr
6616674             0 1 2 0 6 0 7 0 0 0    initial/initial/conj/initial/initial/last/suffix
6616674             0 4 5 0 6 0 0 0 0 0    initial/initial/conj/initial/initial/last/suffix
6616687             0 1 2 6 7 0 0 0 0 0    initial/initial/conj/initial/initial/prefix/last
6616687             0 4 5 6 7 0 0 0 0 0    initial/initial/conj/initial/initial/prefix/last
66166872            0 1 2 6 7 8 0 0 0 0    initial/initial/conj/initial/initial/prefix/last/jrsr
66166872            0 4 5 6 7 0 0 0 0 0    initial/initial/conj/initial/initial/prefix/last/jrsr
661668724           0 1 2 6 7 8 9 0 0 0    initial/initial/conj/initial/initial/prefix/last/jrsr
661668724           0 4 5 6 7 0 0 0 0 0    initial/initial/conj/initial/initial/prefix/last/jrsr
66166874            0 1 2 6 7 0 8 0 0 0    initial/initial/conj/initial/initial/prefix/last/suffix
66166874            0 4 5 6 7 0 0 0 0 0    initial/initial/conj/initial/initial/prefix/last/suffix
66167               0 1 2 0 5 0 0 0 0 0    initial/initial/conj/initial/last
66167               0 4 0 0 5 0 0 0 0 0    initial/initial/conj/initial/last
661672              0 1 2 0 5 6 0 0 0 0    initial/initial/conj/initial/last/jrsr
661672              0 4 0 0 5 0 0 0 0 0    initial/initial/conj/initial/last/jrsr
6616724             0 1 2 0 5 6 7 0 0 0    initial/initial/conj/initial/last/jrsr
6616724             0 4 0 0 5 0 0 0 0 0    initial/initial/conj/initial/last/jrsr
661674              0 1 2 0 5 0 6 0 0 0    initial/initial/conj/initial/last/suffix
661674              0 4 0 0 5 0 0 0 0 0    initial/initial/conj/initial/last/suffix
661687              0 1 2 5 6 0 0 0 0 0    initial/initial/conj/initial/prefix/last
661687              0 4 0 5 6 0 0 0 0 0    initial/initial/conj/initial/prefix/last
6616872             0 1 2 5 6 7 0 0 0 0    initial/initial/conj/initial/prefix/last/jrsr
6616872             0 4 0 5 6 0 0 0 0 0    initial/initial/conj/initial/prefix/last/jrsr
66168724            0 1 2 5 6 7 8 0 0 0    initial/initial/conj/initial/prefix/last/jrsr
66168724            0 4 0 5 6 0 0 0 0 0    initial/initial/conj/initial/prefix/last/jrsr
6616874             0 1 2 5 6 0 7 0 0 0    initial/initial/conj/initial/prefix/last/suffix
6616874             0 4 0 5 6 0 0 0 0 0    initial/initial/conj/initial/prefix/last/suffix
661697              0 1 2 0 6 0 0 0 0 0    initial/initial/conj/initial/first/last
661697              0 4 5 0 6 0 0 0 0 0    initial/initial/conj/initial/first/last
6616972             0 1 2 0 6 7 0 0 0 0    initial/initial/conj/initial/first/last/jrsr
6616972             0 4 5 0 6 0 0 0 0 0    initial/initial/conj/initial/first/last/jrsr
661897              0 1 2 0 6 0 0 0 0 0    initial/initial/conj/prefix(first)/first/last
661897              0 4 5 0 6 0 0 0 0 0    initial/initial/conj/prefix(first)/first/last
661927              0 1 2 0 6 0 0 0 0 0    initial/initial/conj/first/jrsr/last
661927              0 4 0 0 6 5 0 0 0 0    initial/initial/conj/first/jrsr/last
661957              0 1 2 0 6 0 0 0 0 0    initial/initial/conj/first/deceased/last
661957              0 4 0 0 6 0 0 0 0 1    initial/initial/conj/first/deceased/last
6619572             0 1 2 0 6 7 0 0 0 0    initial/initial/conj/first/deceased/last/jrsr
6619572             0 4 0 0 6 0 0 0 0 1    initial/initial/conj/first/deceased/last/jrsr
6619657             0 1 2 0 7 0 0 0 0 0    initial/initial/conj/first/initial/deceased/last
6619657             0 4 5 0 7 0 0 0 0 1    initial/initial/conj/first/initial/deceased/last
661967              0 1 2 0 6 0 0 0 0 0    initial/initial/conj/first/initial/last
661967              0 4 5 0 6 0 0 0 0 0    initial/initial/conj/first/initial/last
6619672             0 1 2 0 6 7 0 0 0 0    initial/initial/conj/first/initial/last/jrsr
6619672             0 4 5 0 6 0 0 0 0 0    initial/initial/conj/first/initial/last/jrsr
66197               0 1 2 0 5 0 0 0 0 0    initial/initial/conj/first/last
66197               0 4 0 0 5 0 0 0 0 0    initial/initial/conj/first/last
661972              0 1 2 0 5 6 0 0 0 0    initial/initial/conj/first/last/jrsr
661972              0 4 0 0 5 0 0 0 0 0    initial/initial/conj/first/last/jrsr
661997              0 1 2 0 6 0 0 0 0 0    initial/initial/conj/first/first/last
661997              0 4 5 0 6 0 0 0 0 0    initial/initial/conj/first/first/last
6619972             0 1 2 0 6 7 0 0 0 0    initial/initial/conj/first/first/last/jrsr
6619972             0 4 5 0 6 0 0 0 0 0    initial/initial/conj/first/first/last/jrsr
6621667             0 1 2 0 7 3 0 0 0 0    initial/initial/jrsr/conj/initial/initial/last
6621667             0 5 6 0 7 0 0 0 0 0    initial/initial/jrsr/conj/initial/initial/last
6621967             0 1 2 0 7 3 0 0 0 0    initial/initial/jrsr/conj/first/initial/last
6621967             0 5 6 0 7 0 0 0 0 0    initial/initial/jrsr/conj/first/initial/last
662197              0 1 2 0 6 3 0 0 0 0    initial/initial/jrsr/conj/first/last
662197              0 5 0 0 6 0 0 0 0 0    initial/initial/jrsr/conj/first/last
6621997             0 1 2 0 7 3 0 0 0 0    initial/initial/jrsr/conj/first/first/last
6621997             0 5 6 0 7 0 0 0 0 0    initial/initial/jrsr/conj/first/first/last
66251967            0 1 2 0 8 3 0 0 0 1    initial/initial/jrsr/deceased/conj/first/initial/last
66251967            0 6 7 0 8 0 0 0 0 0    initial/initial/jrsr/deceased/conj/first/initial/last
6627                0 1 2 0 3 4 0 0 0 0    initial/initial/jrsr/last
6651667             0 1 2 0 7 0 0 0 0 1    initial/initial/deceased/conj/initial/initial/last
6651667             0 5 6 0 7 0 0 0 0 0    initial/initial/deceased/conj/initial/initial/last
6651967             0 1 2 0 7 0 0 0 0 1    initial/initial/deceased/conj/first/initial/last
6651967             0 5 6 0 7 0 0 0 0 0    initial/initial/deceased/conj/first/initial/last
66519672            0 1 2 0 7 8 0 0 0 1    initial/initial/deceased/conj/first/initial/last/jrsr
66519672            0 5 6 0 7 0 0 0 0 0    initial/initial/deceased/conj/first/initial/last/jrsr
665197              0 1 2 0 6 0 0 0 0 1    initial/initial/deceased/conj/first/last
665197              0 5 0 0 6 0 0 0 0 0    initial/initial/deceased/conj/first/last
6651972             0 1 2 0 6 7 0 0 0 1    initial/initial/deceased/conj/first/last/jrsr
6651972             0 5 0 0 6 0 0 0 0 0    initial/initial/deceased/conj/first/last/jrsr
6651997             0 1 2 0 7 0 0 0 0 1    initial/initial/deceased/conj/first/first/last
6651997             0 5 6 0 7 0 0 0 0 0    initial/initial/deceased/conj/first/first/last
66591967            0 1 2 0 4 0 0 0 0 1    initial/initial/deceased/first(last)/conj/first/initial/last
66591967            0 6 7 0 8 0 0 0 0 0    initial/initial/deceased/first(last)/conj/first/initial/last
6667                0 1 2 0 4 0 0 0 0 0    initial/initial/initial/last
667                 0 1 2 0 3 0 0 0 0 0    initial/initial/last
6672                0 1 2 0 3 4 0 0 0 0    initial/initial/last/jrsr
667212              0 1 2 0 3 4 0 0 0 0    initial/initial/last/jrsr/conj/jrsr
667212              0 1 2 0 3 6 0 0 0 0    initial/initial/last/jrsr/conj/jrsr
66724               0 1 2 0 3 4 5 0 0 0    initial/initial/last/jrsr/suffix
66725               0 1 2 0 3 4 0 0 0 1    initial/initial/last/jrsr/deceased
6674                0 1 2 0 3 0 4 0 0 0    initial/initial/last/suffix
6675                0 1 2 0 3 0 0 0 0 1    initial/initial/last/deceased
6687                0 1 2 3 4 0 0 0 0 0    initial/initial/prefix/last
66872               0 1 2 3 4 5 0 0 0 0    initial/initial/prefix/last/jrsr
668724              0 1 2 3 4 5 6 0 0 0    initial/initial/prefix/last/jrsr/suffix
66874               0 1 2 3 4 0 5 0 0 0    initial/initial/prefix/last/suffix
6691667             0 1 2 0 3 0 0 0 0 0    initial/inital/first(last)/conj/initial/initial/last
6691667             0 5 6 0 7 0 0 0 0 0    initial/inital/first(last)/conj/initial/initial/last
669167              0 1 2 0 3 0 0 0 0 0    initial/inital/first(last)/conj/initial/last
669167              0 5 0 0 6 0 0 0 0 0    initial/inital/first(last)/conj/initial/last
6691967             0 1 2 0 3 0 0 0 0 0    initial/inital/first(last)/conj/first/initial/last
6691967             0 5 6 0 7 0 0 0 0 0    initial/inital/first(last)/conj/first/initial/last
669197              0 1 2 0 3 0 0 0 0 0    initial/initial/first(last)/conj/first/last
669197              0 5 0 0 6 0 0 0 0 0    initial/initial/first(last)/conj/first/last
66921667            0 1 2 0 3 4 0 0 0 0    initial/inital/first(last)/jrsr/conj/initial/initial/last
66921667            0 6 7 0 8 0 0 0 0 0    initial/inital/first(last)/jrsr/conj/initial/initial/last
66921967            0 1 2 0 3 4 0 0 0 0    initial/initial/first(last)/jrsr/conj/first/initial/last
66921967            0 6 7 0 8 0 0 0 0 0    initial/initial/first(last)/jrsr/conj/first/initial/last
6692197             0 1 2 0 3 4 0 0 0 0    initial/initial/first(last)/jrsr/conj/first/last
6692197             0 6 0 0 7 0 0 0 0 0    initial/initial/first(last)/jrsr/conj/first/last
67                  0 1 0 0 2 0 0 0 0 0    initial/last
672                 0 1 0 0 2 3 0 0 0 0    initial/last/jrsr
6724                0 1 0 0 2 3 4 0 0 0    initial/last/jrsr/suffix
674                 0 1 0 0 2 0 3 0 0 0    initial/last/suffix
685197              0 1 2 0 6 0 0 0 0 1    initial/prefix(first)/deceased/conj/first/last
685197              0 5 0 0 6 0 0 0 0 0    initial/prefix(first)/deceased/conj/first/last
687                 0 1 0 2 3 0 0 0 0 0    initial/prefix/last
6872                0 1 0 2 3 4 0 0 0 0    initial/prefix/last/jrsr
68724               0 1 0 2 3 4 5 0 0 0    initial/prefix/last/jrsr/suffix
6874                0 1 0 2 3 0 4 0 0 0    initial/prefix/last/suffix
691667              0 1 2 0 6 0 0 0 0 0    initial/first/conj/initial/initial/last
691667              0 4 5 0 6 0 0 0 0 0    initial/first/conj/initial/initial/last
6916672             0 1 2 0 6 7 0 0 0 0    initial/first/conj/initial/initial/last/jrsr
6916672             0 4 5 0 6 0 0 0 0 0    initial/first/conj/initial/initial/last/jrsr
69167               0 1 2 0 5 0 0 0 0 0    initial/first/conj/initial/last
69167               0 4 0 0 5 0 0 0 0 0    initial/first/conj/initial/last
6916957             0 1 2 0 7 0 0 0 0 0    initial/first/conj/initial/first/deceased/last
6916957             0 4 5 0 7 0 0 0 0 1    initial/first/conj/initial/first/deceased/last
691697              0 1 2 0 6 0 0 0 0 0    initial/first/conj/initial/first/last
691697              0 4 5 0 6 0 0 0 0 0    initial/first/conj/initial/first/last
6916972             0 1 2 0 6 7 0 0 0 0    initial/first/conj/initial/first/last/jrsr
6916972             0 4 5 0 6 0 0 0 0 0    initial/first/conj/initial/first/last/jrsr
69169724            0 1 2 0 6 7 8 0 0 0    initial/first/conj/initial/first/last/jrsr
69169724            0 4 5 0 6 0 0 0 0 0    initial/first/conj/initial/first/last/jrsr
6916974             0 1 2 0 6 0 7 0 0 0    initial/first/conj/initial/first/last/suffix
6916974             0 4 5 0 6 0 0 0 0 0    initial/first/conj/initial/first/last/suffix
6916987             0 1 2 6 7 0 0 0 0 0    initial/first/conj/initial/first/prefix/last
6916987             0 4 5 6 7 0 0 0 0 0    initial/first/conj/initial/first/prefix/last
69169872            0 1 2 6 7 8 0 0 0 0    initial/first/conj/initial/first/prefix/last/jrsr
69169872            0 4 5 6 7 0 0 0 0 0    initial/first/conj/initial/first/prefix/last/jrsr
691698724           0 1 2 6 7 8 9 0 0 0    initial/first/conj/initial/first/prefix/last/jrsr
691698724           0 4 5 6 7 0 0 0 0 0    initial/first/conj/initial/first/prefix/last/jrsr
69169874            0 1 2 6 7 0 8 0 0 0    initial/first/conj/initial/first/prefix/last/suffix
69169874            0 4 5 6 7 0 0 0 0 0    initial/first/conj/initial/first/prefix/last/suffix
691957              0 1 2 0 6 0 0 0 0 0    initial/first/conj/first/deceased/last
691957              0 4 0 0 6 0 0 0 0 1    initial/first/conj/first/deceased/last
691967              0 1 2 0 6 0 0 0 0 0    initial/first/conj/initial/first/last
691967              0 4 5 0 6 0 0 0 0 0    initial/first/conj/initial/first/last
6919672             0 1 2 0 6 7 0 0 0 0    initial/first/conj/initial/first/last/jrsr
6919672             0 4 5 0 6 0 0 0 0 0    initial/first/conj/initial/first/last/jrsr
69197               0 1 2 0 5 0 0 0 0 0    initial/first/conj/first/last
69197               0 4 0 0 5 0 0 0 0 0    initial/first/conj/first/last
691972              0 1 2 0 5 6 0 0 0 0    initial/first/conj/first/last/jrsr
691972              0 4 0 0 5 0 0 0 0 0    initial/first/conj/first/last/jrsr
691997              0 1 2 0 6 0 0 0 0 0    initial/first/conj/first/first/last
691997              0 4 5 0 6 0 0 0 0 0    initial/first/conj/first/first/last
6919972             0 1 2 0 6 7 0 0 0 0    initial/first/conj/first/first/last/jrsr
6919972             0 4 5 0 6 0 0 0 0 0    initial/first/conj/first/first/last/jrsr
6921967             0 1 2 0 7 3 0 0 0 0    initial/first/jrsr/conj/first/initial/last
6921967             0 5 6 0 7 0 0 0 0 0    initial/first/jrsr/conj/first/initial/last
692197              0 1 2 0 6 3 0 0 0 0    initial/first/jrsr/conj/first/last
692197              0 5 0 0 6 0 0 0 0 0    initial/first/jrsr/conj/first/last
6951667             0 1 2 0 7 0 0 0 0 1    inital/first/deceased/conj/initial/initial/last
6951667             0 5 6 0 7 0 0 0 0 0    inital/first/deceased/conj/initial/initial/last
6951697             0 1 2 0 7 0 0 0 0 1    inital/first/deceased/conj/initial/first/last
6951697             0 5 6 0 7 0 0 0 0 0    inital/first/deceased/conj/initial/first/last
6951967             0 1 2 0 7 0 0 0 0 1    inital/first/deceased/conj/first/initial/last
6951967             0 5 6 0 7 0 0 0 0 0    inital/first/deceased/conj/first/initial/last
695197              0 1 2 0 6 0 0 0 0 1    inital/first/deceased/conj/first/last
695197              0 5 0 0 6 0 0 0 0 0    inital/first/deceased/conj/first/last
6951997             0 1 2 0 7 0 0 0 0 1    inital/first/deceased/conj/first/first/last
6951997             0 5 6 0 7 0 0 0 0 0    inital/first/deceased/conj/first/first/last
6957                0 1 2 0 4 0 0 0 0 0    initial/first/deceased/last
697                 0 1 2 0 3 0 0 0 0 0    initial/first/last
6972                0 1 2 0 3 4 0 0 0 0    initial/first/last/jrsr
69724               0 1 2 0 3 4 5 0 0 0    initial/first/last/jrsr/suffix
6974                0 1 2 0 3 0 4 0 0 0    initial/first/last/suffix
6987                0 1 2 3 4 0 0 0 0 0    initial/first/prefix/last
69872               0 1 2 3 4 5 0 0 0 0    initial/first/prefix/last/jrsr
698724              0 1 2 3 4 5 6 0 0 0    initial/first/prefix/last/jrsr/suffix
69874               0 1 2 3 4 0 5 0 0 0    initial/first/prefix/last/suffix
6991697             0 1 2 0 3 0 0 0 0 0    initial/first/first(last)/conj/initial/first/last
6991697             0 5 6 0 7 0 0 0 0 0    initial/first/first(last)/conj/initial/first/last
6991967             0 1 2 0 3 0 0 0 0 0    initial/first/first(last)/conj/first/initial/last
6991967             0 5 6 0 7 0 0 0 0 0    initial/first/first(last)/conj/first/initial/last
699197              0 1 2 0 3 0 0 0 0 0    initial/first/first(last)/conj/first/last
699197              0 4 0 0 5 0 0 0 0 0    initial/first/first(last)/conj/first/last
7                   0 0 0 0 1 0 0 0 0 0    last name
72                  0 0 0 0 1 2 0 0 0 0    last name/jrsr
724                 0 0 0 0 1 2 3 0 0 0    last name/jrsr/suffix
74                  0 0 0 0 1 0 2 0 0 0    last name/suffix
8197                0 1 0 0 4 0 0 0 0 0    prefix(first/conj/first/last
8197                0 3 0 0 4 0 0 0 0 0    prefix(first/conj/first/last
861967              0 1 2 0 6 0 0 0 0 0    prefix(first)/initial/conj/first/initial/last
861967              0 4 5 0 6 0 0 0 0 0    prefix(first)/initial/conj/first/initial/last
86197               0 1 2 0 5 0 0 0 0 0    prefix(first)/initial/conj/first/last
86197               0 4 0 0 5 0 0 0 0 0    prefix(first)/initial/conj/first/last
8621967             0 1 2 0 7 3 0 0 0 0    prefix(first)/initial/jrsr/conj/first/initial/last
8621967             0 5 6 0 7 0 0 0 0 0    prefix(first)/initial/jrsr/conj/first/initial/last
867                 0 1 2 0 3 0 0 0 0 0    prefix/initial/last
8672                0 1 2 0 3 4 0 0 0 0    prefix/initial/last/jrsr
86724               0 1 2 0 3 4 5 0 0 0    prefix/initial/last/jrsr/suffix
8674                0 1 2 0 3 0 4 0 0 0    prefix/initial/last/suffix
87                  0 1 0 0 2 0 0 0 0 0    prefix/last
872                 0 1 0 0 2 3 0 0 0 0    prefix/last/jrsr
8724                0 1 0 0 2 3 4 0 0 0    prefix/last/jrsr/suffix
874                 0 1 0 0 2 0 3 0 0 0    prefix/last/suffix
8917                0 0 0 0 4 0 0 0 0 0    prefix(first)/first/conj/last
8917                0 1 2 0 4 0 0 0 0 0    prefix(first)/first/conj/last
891967              0 1 2 0 6 0 0 0 0 0    prefix(first)/first/conj/first/initial/last
891967              0 4 5 0 6 0 0 0 0 0    prefix(first)/first/conj/first/initial/last
897                 0 1 2 0 3 0 0 0 0 0    prefix/first/last
8972                0 1 2 0 3 4 0 0 0 0    prefix/first/last/jrsr
89724               0 1 2 0 3 4 5 0 0 0    prefix/first/last/jrsr/suffix
8974                0 1 2 0 3 0 4 0 0 0    prefix/first/last/suffix
913967              0 1 0 0 6 0 0 0 0 0    first/conj/title/first/initial/last
913967              3 4 5 0 6 0 0 0 0 0    first/conj/title/first/initial/last
91397               0 1 0 0 5 0 0 0 0 0    first/conj/title/first/last
91397               3 4 0 0 5 0 0 0 0 0    first/conj/title/first/last
916572              0 1 0 0 5 6 0 0 0 0    first/conj/initial/deceased/last/jrsr
916572              0 3 0 0 5 0 0 0 0 1    first/conj/initial/deceased/last/jrsr
91667               0 1 0 0 5 0 0 0 0 0    first/conj/initial/initial/last
91667               0 3 4 0 5 0 0 0 0 0    first/conj/initial/initial/last
916672              0 1 0 0 5 6 0 0 0 0    first/conj/initial/initial/last/jrsr
916672              0 3 4 0 5 0 0 0 0 0    first/conj/initial/initial/last/jrsr
91697               0 1 0 0 5 0 0 0 0 0    first/conj/initial/first/last
91697               0 3 4 0 5 0 0 0 0 0    first/conj/initial/first/last
917                 0 0 0 0 1 0 0 0 0 0    first(last)/conj/last
917                 0 0 0 0 3 0 0 0 0 0    first(last)/conj/last
9187                0 1 0 0 4 0 0 0 0 0    first/conj/prefix(first)/last
9187                0 3 0 0 4 0 0 0 0 0    first/conj/prefix(first)/last
91917               0 0 0 0 1 0 0 0 0 0    first(last)/conj/first(last)/conj/first(last)
91917               0 0 0 0 3 0 0 0 0 0    first(last)/conj/first(last)/conj/first(last)
91917               0 0 0 0 5 0 0 0 0 0    first(last)/conj/first(last)/conj/first(last)
91957               0 1 0 0 5 0 0 0 0 0    first/conj/first/deceased/last
91957               0 3 0 0 5 0 0 0 0 1    first/conj/first/deceased/last
919657              0 1 0 0 6 0 0 0 0 0    first/conj/first/initial/deceased/last
919657              0 3 4 0 6 0 0 0 0 1    first/conj/first/initial/deceased/last
91967               0 1 0 0 5 0 0 0 0 0    first/conj/first/initial/last
91967               0 3 4 0 5 0 0 0 0 0    first/conj/first/initial/last
919672              0 1 0 0 5 6 0 0 0 0    first/conj/first/initial/last/jrsr
919672              0 3 4 0 5 0 0 0 0 0    first/conj/first/initial/last/jrsr
9196724             0 1 0 0 5 6 7 0 0 0    first/conj/first/initial/last/jrsr
9196724             0 3 4 0 5 0 0 0 0 0    first/conj/first/initial/last/jrsr
919674              0 1 0 0 5 0 6 0 0 0    first/conj/first/initial/last/suffix
919674              0 3 4 0 5 0 0 0 0 0    first/conj/first/initial/last/suffix
919687              0 1 0 5 6 0 0 0 0 0    first/conj/first/initial/prefix/last
919687              0 3 4 5 6 0 0 0 0 0    first/conj/first/initial/prefix/last
9196872             0 1 0 5 6 7 0 0 0 0    first/conj/first/initial/prefix/last/jrsr
9196872             0 3 4 5 6 0 0 0 0 0    first/conj/first/initial/prefix/last/jrsr
91968724            0 1 0 5 6 7 8 0 0 0    first/conj/first/initial/prefix/last/jrsr
91968724            0 3 4 5 6 0 0 0 0 0    first/conj/first/initial/prefix/last/jrsr
9196874             0 1 0 5 6 0 7 0 0 0    first/conj/first/initial/prefix/last/suffix
9196874             0 3 4 5 6 0 0 0 0 0    first/conj/first/initial/prefix/last/suffix
919697              0 1 0 0 6 0 0 0 0 0    first/conj/first/initial/first/last
919697              0 4 5 0 6 0 0 0 0 0    first/conj/first/initial/first/last
9197                0 1 0 0 4 0 0 0 0 0    first/conj/first/last
9197                0 3 0 0 4 0 0 0 0 0    first/conj/first/last
91972               0 1 0 0 4 5 0 0 0 0    first/conj/first/last/jrsr
91972               0 3 0 0 4 0 0 0 0 0    first/conj/first/last/jrsr
919724              0 1 0 0 4 5 6 0 0 0    first/conj/first/last/jrsr
919724              0 3 0 0 4 0 0 0 0 0    first/conj/first/last/jrsr
91974               0 1 0 0 4 0 5 0 0 0    first/conj/first/last/suffix
91974               0 3 0 0 4 0 0 0 0 0    first/conj/first/last/suffix
91987               0 1 0 4 5 0 0 0 0 0    first/conj/first/prefix/last
91987               0 3 0 4 5 0 0 0 0 0    first/conj/first/prefix/last
919872              0 1 0 4 5 6 0 0 0 0    first/conj/first/prefix/last/jrsr
919872              0 3 0 4 5 0 0 0 0 0    first/conj/first/prefix/last/jrsr
9198724             0 1 0 4 5 6 7 0 0 0    first/conj/first/prefix/last/jrsr
9198724             0 3 0 4 5 0 0 0 0 0    first/conj/first/prefix/last/jrsr
919874              0 1 0 4 5 0 6 0 0 0    first/conj/first/prefix/last/suffix
919874              0 3 0 4 5 0 0 0 0 0    first/conj/first/prefix/last/suffix
91991667            0 1 0 0 8 0 0 0 0 0    first/conj/first/first/conj/initial/initial/last
91991667            0 3 4 0 8 0 0 0 0 0    first/conj/first/first/conj/initial/initial/last
91991667            0 6 7 0 8 0 0 0 0 0    first/conj/first/first/conj/initial/initial/last
919967              0 1 0 0 6 0 0 0 0 0    first/conj/first/first/initial/last
919967              0 3 4 0 6 0 0 0 0 0    first/conj/first/first/initial/last
91997               0 1 0 0 5 0 0 0 0 0    first/conj/first/first/last
91997               0 3 4 0 5 0 0 0 0 0    first/conj/first/first/last
919972              0 1 0 0 5 6 0 0 0 0    first/conj/first/first/last/jrsr
919972              0 3 4 0 5 0 0 0 0 0    first/conj/first/first/last/jrsr
9199724             0 1 0 0 5 6 7 0 0 0    first/conj/first/first/last/jrsr
9199724             0 3 4 0 5 0 0 0 0 0    first/conj/first/first/last/jrsr
919974              0 1 0 0 5 0 6 0 0 0    first/conj/first/first/last/suffix
919974              0 3 4 0 5 0 0 0 0 0    first/conj/first/first/last/suffix
919987              0 1 0 5 6 0 0 0 0 0    first/conj/first/first/prefix/last
919987              0 3 4 5 6 0 0 0 0 0    first/conj/first/first/prefix/last
9199872             0 1 0 5 6 7 0 0 0 0    first/conj/first/first/prefix/last/jrsr
9199872             0 3 4 5 6 0 0 0 0 0    first/conj/first/first/prefix/last/jrsr
91998724            0 1 0 5 6 7 8 0 0 0    first/conj/first/first/prefix/last/jrsr
91998724            0 3 4 5 6 0 0 0 0 0    first/conj/first/first/prefix/last/jrsr
9199874             0 1 0 5 6 0 7 0 0 0    first/conj/first/first/prefix/last/suffix
9199874             0 3 4 5 6 0 0 0 0 0    first/conj/first/first/prefix/last/suffix
921697              0 1 0 0 6 2 0 0 0 0    first/jrsr/conj/initial/first/last
921697              0 4 5 0 6 0 0 0 0 0    first/jrsr/conj/initial/first/last
9219657             0 1 0 0 7 2 0 0 0 0    first/jrsr/conj/first/initial/deceased/last
9219657             0 4 5 0 7 0 0 0 0 1    first/jrsr/conj/first/initial/deceased/last
921967              0 1 0 0 6 2 0 0 0 0    first/jrsr/conj/first/initial/last
921967              0 4 5 0 6 0 0 0 0 0    first/jrsr/conj/first/initial/last
92197               0 1 0 0 5 2 0 0 0 0    first/jrsr/conj/first/last
92197               0 4 0 0 5 0 0 0 0 0    first/jrsr/conj/first/last
921997              0 1 0 0 6 2 0 0 0 0    first/jrsr/conj/first/first/last
921997              0 4 5 0 6 0 0 0 0 0    first/jrsr/conj/first/first/last
927                 0 1 0 0 3 2 0 0 0 0    first/jrsr/last
951957              0 1 0 0 6 0 0 0 0 1    first/deceased/conj/first/deceased/last
951957              0 4 0 0 6 0 0 0 0 1    first/deceased/conj/first/deceased/last
951967              0 1 0 0 6 0 0 0 0 1    first/deceased/conj/first/initial/last
951967              0 4 5 0 6 0 0 0 0 0    first/deceased/conj/first/initial/last
9519672             0 1 0 0 6 7 0 0 0 1    first/deceased/conj/first/initial/last/jrsr
9519672             0 4 5 0 6 0 0 0 0 0    first/deceased/conj/first/initial/last/jrsr
95197               0 1 0 0 5 0 0 0 0 1    first/deceased/conj/first/last
95197               0 4 0 0 5 0 0 0 0 0    first/deceased/conj/first/last
951972              0 1 0 0 5 6 0 0 0 1    first/deceased/conj/first/last/jrsr
951972              0 4 0 0 5 0 0 0 0 0    first/deceased/conj/first/last/jrsr
951987              0 1 0 5 6 0 0 0 0 1    first/deceased/conj/first/last
951987              0 4 0 5 6 0 0 0 0 0    first/deceased/conj/first/last
951997              0 1 0 0 6 0 0 0 0 1    first/deceased/conj/first/first/last
951997              0 4 5 0 6 0 0 0 0 0    first/deceased/conj/first/first/last
957                 0 1 0 0 3 0 0 0 0 1    first/deceased/last
9613667             0 1 2 0 7 0 0 0 0 0    first/initial/conj/title/initial/initial/last
9613667             4 5 6 0 7 0 0 0 0 0    first/initial/conj/title/initial/initial/last
9613967             0 1 2 0 7 0 0 0 0 0    first/initial/conj/title/first/initial/last
9613967             4 5 6 0 7 0 0 0 0 0    first/initial/conj/title/first/initial/last
961667              0 1 2 0 6 0 0 0 0 0    first/initial/conj/initial/initial/last
961667              0 4 5 0 6 0 0 0 0 0    first/initial/conj/initial/initial/last
9616672             0 1 2 0 6 7 0 0 0 0    first/initial/conj/initial/initial/last/jrsr
9616672             0 4 5 0 6 0 0 0 0 0    first/initial/conj/initial/initial/last/jrsr
9616697             0 1 2 0 7 0 0 0 0 0    first/initial/conj/initial/initial/fisrt/last
9616697             0 4 5 0 7 0 0 0 0 0    first/initial/conj/initial/initial/fisrt/last
96167               0 1 2 0 5 0 0 0 0 0    first/initial/conj/initial/last
96167               0 4 0 0 5 0 0 0 0 0    first/initial/conj/initial/last
961672              0 1 2 0 5 6 0 0 0 0    first/initial/conj/initial/last/jrsr
961672              0 4 0 0 5 0 0 0 0 0    first/initial/conj/initial/last/jrsr
961697              0 1 2 0 6 0 0 0 0 0    first/initial/conj/initial/first/last
961697              0 4 5 0 6 0 0 0 0 0    first/initial/conj/initial/first/last
961897              0 1 2 0 6 0 0 0 0 0    first/initial/conj/prefix(first)/first/last
961897              0 4 5 0 6 0 0 0 0 0    first/initial/conj/prefix(first)/first/last
961957              0 1 2 0 6 0 0 0 0 0    first/initial/conj/first/deceased/last
961957              0 4 0 0 6 0 0 0 0 1    first/initial/conj/first/deceased/last
9619572             0 1 2 0 6 7 0 0 0 0    first/initial/conj/first/deceased/last/jrsr
9619572             0 4 0 0 6 0 0 0 0 1    first/initial/conj/first/deceased/last/jrsr
9619657             0 1 2 0 7 0 0 0 0 0    first/initial/conj/first/initial/deceased/last
9619657             0 4 5 0 7 0 0 0 0 1    first/initial/conj/first/initial/deceased/last
96196572            0 1 2 0 7 8 0 0 0 0    first/initial/conj/first/initial/deceased/last/jrsr
96196572            0 4 5 0 7 0 0 0 0 1    first/initial/conj/first/initial/deceased/last/jrsr
9619667             0 1 2 0 7 0 0 0 0 0    first/initial/conj/first/initial/initial/last
9619667             0 4 5 0 7 0 0 0 0 0    first/initial/conj/first/initial/initial/last
96196672            0 1 2 0 7 8 0 0 0 0    first/initial/conj/first/initial/initial/last/jrsr
96196672            0 4 5 0 7 0 0 0 0 0    first/initial/conj/first/initial/initial/last/jrsr
961967              0 1 2 0 6 0 0 0 0 0    first/initial/conj/first/initial/last
961967              0 4 5 0 6 0 0 0 0 0    first/initial/conj/first/initial/last
9619672             0 1 2 0 6 7 0 0 0 0    first/initial/conj/first/initial/last/jrsr
9619672             0 4 5 0 6 0 0 0 0 0    first/initial/conj/first/initial/last/jrsr
96196724            0 1 2 0 6 7 8 0 0 0    first/initial/conj/first/initial/last/jrsr
96196724            0 4 5 0 6 0 0 0 0 0    first/initial/conj/first/initial/last/jrsr
9619674             0 1 2 0 6 0 7 0 0 0    first/initial/conj/first/initial/last/suffix
9619674             0 4 5 0 6 0 0 0 0 0    first/initial/conj/first/initial/last/suffix
9619687             0 1 2 6 7 0 0 0 0 0    first/initial/conj/first/initial/prefix/last
9619687             0 4 5 6 7 0 0 0 0 0    first/initial/conj/first/initial/prefix/last
96196872            0 1 2 6 7 8 0 0 0 0    first/initial/conj/first/initial/prefix/last/jrsr
96196872            0 4 5 6 7 0 0 0 0 0    first/initial/conj/first/initial/prefix/last/jrsr
961968724           0 1 2 6 7 8 9 0 0 0    first/initial/conj/first/initial/prefix/last/jrsr
961968724           0 4 5 6 7 0 0 0 0 0    first/initial/conj/first/initial/prefix/last/jrsr
96196874            0 1 2 6 7 0 8 0 0 0    first/initial/conj/first/initial/prefix/last/suffix
96196874            0 4 5 6 7 0 0 0 0 0    first/initial/conj/first/initial/prefix/last/suffix
96197               0 1 2 0 5 0 0 0 0 0    first/initial/conj/first/last
96197               0 4 0 0 5 0 0 0 0 0    first/initial/conj/first/last
961972              0 1 2 0 5 6 0 0 0 0    first/initial/conj/first/last/jrsr
961972              0 4 0 0 5 0 0 0 0 0    first/initial/conj/first/last/jrsr
9619724             0 1 2 0 5 6 7 0 0 0    first/initial/conj/first/last/jrsr
9619724             0 4 0 0 5 0 0 0 0 0    first/initial/conj/first/last/jrsr
961974              0 1 2 0 5 0 6 0 0 0    first/initial/conj/first/last/suffix
961974              0 4 0 0 5 0 0 0 0 0    first/initial/conj/first/last/suffix
961987              0 1 2 5 6 0 0 0 0 0    first/initial/conj/first/prefix/last
961987              0 4 0 5 6 0 0 0 0 0    first/initial/conj/first/prefix/last
9619872             0 1 2 5 6 7 0 0 0 0    first/initial/conj/first/prefix/last/jrsr
9619872             0 4 0 5 6 0 0 0 0 0    first/initial/conj/first/prefix/last/jrsr
96198724            0 1 2 5 6 7 8 0 0 0    first/initial/conj/first/prefix/last/jrsr
96198724            0 4 0 5 6 0 0 0 0 0    first/initial/conj/first/prefix/last/jrsr
9619874             0 1 2 5 6 0 7 0 0 0    first/initial/conj/first/prefix/last/suffix
9619874             0 4 0 5 6 0 0 0 0 0    first/initial/conj/first/prefix/last/suffix
9619957             0 1 2 0 7 0 0 0 0 0    first/initial/conj/first/first/deceased/last
9619957             0 4 5 0 7 0 0 0 0 1    first/initial/conj/first/first/deceased/last
9619967             0 1 2 0 7 0 0 0 0 0    first/initial/conj/first/first/initial/last
9619967             0 4 5 0 7 0 0 0 0 0    first/initial/conj/first/first/initial/last
961997              0 1 2 0 6 0 0 0 0 0    first/initial/conj/first/first/last
961997              0 4 5 0 6 0 0 0 0 0    first/initial/conj/first/first/last
9619972             0 1 2 0 6 7 0 0 0 0    first/initial/conj/first/first/last/jrsr
9619972             0 4 5 0 6 0 0 0 0 0    first/initial/conj/first/first/last/jrsr
9619975             0 1 2 0 6 0 0 0 0 0    first/initial/conj/first/first/last/deceased
9619975             0 4 5 0 6 0 0 0 0 1    first/initial/conj/first/first/last/deceased
9619987             0 1 2 6 7 0 0 0 0 0    first/initial/conj/first/first/prefix/last
9619987             0 4 5 6 7 0 0 0 0 0    first/initial/conj/first/first/prefix/last
9621667             0 1 2 0 7 3 0 0 0 0    first/initial/jrsr/conj/initial/initial/last
9621667             0 5 6 0 7 0 0 0 0 0    first/initial/jrsr/conj/initial/initial/last
96216672            0 1 2 0 7 3 0 0 0 0    first/initial/jrsr/conj/initial/initial/last/jrsr
96216672            0 5 6 0 7 8 0 0 0 0    first/initial/jrsr/conj/initial/initial/last/jrsr
9621697             0 1 2 0 7 3 0 0 0 0    first/initial/jrsr/conj/initial/initial/last
9621697             0 5 6 0 7 0 0 0 0 0    first/initial/jrsr/conj/initial/initial/last
96216972            0 1 2 0 7 3 0 0 0 0    first/initial/jrsr/conj/initial/first/last/jrsr
96216972            0 5 6 0 7 8 0 0 0 0    first/initial/jrsr/conj/initial/first/last/jrsr
9621957             0 1 2 0 7 3 0 0 0 0    first/initial/jrsr/conj/first/deceased/last
9621957             0 1 2 0 7 3 0 0 0 0    first/initial/jrsr/conj/first/deceased/last
9621957             0 5 0 0 7 0 0 0 0 0    first/initial/jrsr/conj/first/deceased/last
9621957             0 5 0 0 7 0 0 0 0 1    first/initial/jrsr/conj/first/deceased/last
96219657            0 1 2 0 8 3 0 0 0 1    first/initial/jrsr/conj/first/initial/deceased/last
96219657            0 5 6 0 8 0 0 0 0 0    first/initial/jrsr/conj/first/initial/deceased/last
9621967             0 1 2 0 7 3 0 0 0 0    first/initial/jrsr/conj/first/initial/last
9621967             0 5 6 0 7 0 0 0 0 0    first/initial/jrsr/conj/first/initial/last
96219672            0 1 2 0 7 3 0 0 0 0    first/initial/jrsr/conj/first/initial/last/jrsr
96219672            0 5 6 0 7 8 0 0 0 0    first/initial/jrsr/conj/first/initial/last/jrsr
96219687            0 1 2 7 8 3 0 0 0 0    first/initial/jrsr/conj/first/initial/prefix/last
96219687            0 5 6 7 8 0 0 0 0 0    first/initial/jrsr/conj/first/initial/prefix/last
962197              0 1 2 0 6 3 0 0 0 0    first/initial/jrsr/conj/first/last
962197              0 5 0 0 6 0 0 0 0 0    first/initial/jrsr/conj/first/last
9621997             0 1 2 0 7 3 0 0 0 0    first/initial/jrsr/conj/first/first/last
9621997             0 5 6 0 7 0 0 0 0 0    first/initial/jrsr/conj/first/first/last
96219972            0 1 2 0 7 3 0 0 0 0    first/initial/jrsr/conj/first/first/last/jrsr
96219972            0 5 6 0 7 8 0 0 0 0    first/initial/jrsr/conj/first/first/last/jrsr
96251967            0 1 2 0 7 3 0 0 0 1    first/initial/jrsr/deceased/conj/first/initial/last
96251967            0 5 6 0 7 0 0 0 0 0    first/initial/jrsr/deceased/conj/first/initial/last
9627                0 1 2 0 4 3 0 0 0 0    first/initial/jrsr/last
9629197             0 1 2 0 4 3 0 0 0 0    first/initial/jrsr/first(last)/conj/first/last
9629197             0 6 0 0 7 0 0 0 0 0    first/initial/jrsr/first(last)/conj/first/last
9651657             0 1 2 0 7 0 0 0 0 1    first/initial/deceased/conj/initial/deceased/last
9651657             0 5 0 0 7 0 0 0 0 1    first/initial/deceased/conj/initial/deceased/last
96516657            0 1 2 0 8 0 0 0 0 1    first/initial/deceased/conj/initial/initial/deceased/last
96516657            0 5 6 0 8 0 0 0 0 1    first/initial/deceased/conj/initial/initial/deceased/last
9651667             0 1 2 0 7 0 0 0 0 1    first/initial/deceased/conj/initial/initial/last
9651667             0 5 6 0 7 0 0 0 0 0    first/initial/deceased/conj/initial/initial/last
96516672            0 1 2 0 7 8 0 0 0 1    first/initial/deceased/conj/initial/initial/last/jrsr
96516672            0 5 6 0 7 0 0 0 0 0    first/initial/deceased/conj/initial/initial/last/jrsr
96516957            0 1 2 0 8 0 0 0 0 1    first/initial/deceased/conj/initial/first/deceased/last
96516957            0 5 6 0 8 0 0 0 0 1    first/initial/deceased/conj/initial/first/deceased/last
9651697             0 1 2 0 7 0 0 0 0 1    first/initial/deceased/conj/initial/first/last
9651697             0 5 6 0 7 0 0 0 0 0    first/initial/deceased/conj/initial/first/last
96516972            0 1 2 0 7 8 0 0 0 1    first/initial/deceased/conj/initial/first/last/jrsr
96516972            0 5 6 0 7 0 0 0 0 0    first/initial/deceased/conj/initial/first/last/jrsr
9651957             0 1 2 0 7 0 0 0 0 1    first/initial/deceased/conj/first/deceased/last
9651957             0 5 0 0 7 0 0 0 0 1    first/initial/deceased/conj/first/deceased/last
96519657            0 1 2 0 8 0 0 0 0 1    first/initial/deceased/conj/first/initial/deceased/last
96519657            0 5 6 0 8 0 0 0 0 1    first/initial/deceased/conj/first/initial/deceased/last
9651967             0 1 2 0 7 0 0 0 0 1    first/initial/deceased/conj/first/initial/last
9651967             0 5 6 0 7 0 0 0 0 0    first/initial/deceased/conj/first/initial/last
96519672            0 1 2 0 7 8 0 0 0 1    first/initial/deceased/conj/first/initial/last/jrsr
96519672            0 5 6 0 7 0 0 0 0 0    first/initial/deceased/conj/first/initial/last/jrsr
965197              0 1 2 0 6 0 0 0 0 1    first/initial/deceased/conj/first/last
965197              0 5 0 0 6 0 0 0 0 0    first/initial/deceased/conj/first/last
9651972             0 1 2 0 6 0 0 0 0 1    first/initial/deceased/conj/first/last/jrsr
9651972             0 5 0 0 6 0 0 0 0 0    first/initial/deceased/conj/first/last/jrsr
9651987             0 1 2 6 7 0 0 0 0 1    first/initial/deceased/conj/first/prefix/last
9651987             0 5 0 6 7 0 0 0 0 0    first/initial/deceased/conj/first/prefix/last
96519957            0 1 2 0 8 0 0 0 0 1    first/initial/deceased/conj/first/first/deceased/last
96519957            0 5 6 0 8 0 0 0 0 1    first/initial/deceased/conj/first/first/deceased/last
9651997             0 1 2 0 7 0 0 0 0 1    first/initial/deceased/conj/first/first/last
9651997             0 5 6 0 7 0 0 0 0 0    first/initial/deceased/conj/first/first/last
96521967            0 1 2 0 8 4 0 0 0 1    first/initial/deceased/jrsr/conj/first/initial/last
96521967            0 6 7 0 8 0 0 0 0 0    first/initial/deceased/jrsr/conj/first/initial/last
9657                0 1 2 0 4 0 0 0 0 1    first/initial/deceased/last
96591667            0 1 2 0 4 0 0 0 0 1    first/initial/deceased/first(last)/conj/initial/initial/last
96591667            0 6 7 0 8 0 0 0 0 0    first/initial/deceased/first(last)/conj/initial/initial/last
9661967             0 1 2 0 7 0 0 0 0 0    first/initial/initial/conj/first/iniitial/last
9661967             0 5 6 0 7 0 0 0 0 0    first/initial/initial/conj/first/iniitial/last
96619672            0 1 2 0 7 8 0 0 0 0    first/initial/initial/conj/first/iniitial/last/jrsr
96619672            0 5 6 0 7 0 0 0 0 0    first/initial/initial/conj/first/iniitial/last/jrsr
966197              0 1 2 0 6 0 0 0 0 0    first/initial/initial/conj/first/last
966197              0 5 0 0 6 0 0 0 0 0    first/initial/initial/conj/first/last
9661997             0 1 2 0 7 0 0 0 0 0    first/initial/initial/conj/first/first/last
9661997             0 5 6 0 7 0 0 0 0 0    first/initial/initial/conj/first/first/last
9667                0 1 2 0 4 0 0 0 0 0    first/initial/initial/last
96672               0 1 2 0 4 5 0 0 0 0    first/initial/initial/last/jrsr
967                 0 1 2 0 3 0 0 0 0 0    first/initial/last
9672                0 1 2 0 3 4 0 0 0 0    first/initial/last/jrsr
96724               0 1 2 0 3 4 5 0 0 0    first/initial/last/jrsr/suffix
9674                0 1 2 0 3 0 4 0 0 0    first/initial/last/suffix/suffix
96744               0 1 2 0 3 0 4 0 0 0    first/initial/last/suffix
9675                0 1 2 0 3 0 0 0 0 1    first/initial/last/deceased
9687                0 1 2 3 4 0 0 0 0 0    first/initial/prefix
96872               0 1 2 3 4 5 0 0 0 0    first/initial/prefix/jrsr
968724              0 1 2 3 4 5 6 0 0 0    first/initial/prefix/jrsr/suffix
96874               0 1 2 3 4 0 5 0 0 0    first/initial/prefix/last/suffix
9691667             0 1 2 0 3 0 0 0 0 0    first/initial/first(last)/conj/initial/initial/last
9691667             0 5 6 0 7 0 0 0 0 0    first/initial/first(last)/conj/initial/initial/last
969167              0 1 2 0 3 0 0 0 0 0    first/initial/first(last)/conj/initial/last
969167              0 5 0 0 6 0 0 0 0 0    first/initial/first(last)/conj/initial/last
9691697             0 1 2 0 3 0 0 0 0 0    first/initial/first(last)/conj/initial/first/last
9691697             0 5 6 0 7 0 0 0 0 0    first/initial/first(last)/conj/initial/first/last
96916972            0 1 2 0 3 0 0 0 0 0    first/initial/first(last)/conj/initial/first/last/jrsr
96916972            0 5 6 0 7 8 0 0 0 0    first/initial/first(last)/conj/initial/first/last/jrsr
9691967             0 1 2 0 3 0 0 0 0 0    first/initial/first(last)/conj/first/initial/last
9691967             0 5 6 0 7 0 0 0 0 0    first/initial/first(last)/conj/first/initial/last
96919672            0 1 2 0 3 0 0 0 0 0    first/initial/first(last)/conj/first/initial/last/jrsr
96919672            0 5 6 0 7 8 0 0 0 0    first/initial/first(last)/conj/first/initial/last/jrsr
969197              0 1 2 0 0 3 0 0 0 0    first/initial/first(last)/conj/first/last
969197              0 5 0 0 0 6 0 0 0 0    first/initial/first(last)/conj/first/last
9691987             0 1 2 0 3 0 0 0 0 0    first/initial/first(last)/conj/first/prefix/last
9691987             0 5 0 6 7 0 0 0 0 0    first/initial/first(last)/conj/first/prefix/last
9691997             0 1 2 0 3 0 0 0 0 0    first/initial/first(last)/conj/first/first/last
9691997             0 5 6 0 7 0 0 0 0 0    first/initial/first(last)/conj/first/first/last
969216687           0 1 2 0 3 4 0 0 0 0    first/initial/first(last)/jrsr/conj/first/initial/prefix/last
969216687           0 6 7 8 9 0 0 0 0 0    first/initial/first(last)/jrsr/conj/first/initial/prefix/last
9692167             0 1 2 0 3 4 0 0 0 0    first/initial/first(last)/jrsr/conj/initial/last
9692167             0 6 0 0 7 0 0 0 0 0    first/initial/first(last)/jrsr/conj/initial/last
96921967            0 1 2 0 3 4 0 0 0 0    first/initial/first(last)/jrsr/conj/first/initial/last
96921967            0 6 7 0 8 0 0 0 0 0    first/initial/first(last)/jrsr/conj/first/initial/last
9692197             0 1 2 0 3 4 0 0 0 0    first/initial/first(last)/jrsr/conj/first/last
9692197             0 6 0 0 7 0 0 0 0 0    first/initial/first(last)/jrsr/conj/first/last
9694167             0 1 2 0 3 0 4 0 0 0    first/initial/first(last)/suffix/conj/initial/last
9694167             0 6 0 0 7 0 0 0 0 0    first/initial/first(last)/suffix/conj/initial/last
96951667            0 1 2 0 3 0 0 0 0 1    first/initial/first(last)/deceased/conj/initial/initial/last
96951667            0 6 7 0 8 0 0 0 0 0    first/initial/first(last)/deceased/conj/initial/initial/last
9697                0 1 2 0 4 0 0 0 0 0    first/initial/first/last
96972               0 1 2 0 4 5 0 0 0 0    first/initial/first/last/jrsr
97                  0 1 0 0 2 0 0 0 0 0    first/last
972                 0 1 0 0 2 3 0 0 0 0    first/last/jrsr
9724                0 1 0 0 2 3 4 0 0 0    first/last/jrsr/suffix
9725                0 1 0 0 2 3 0 0 0 1    first/last/jrsr/deceased
974                 0 1 0 0 2 0 3 0 0 0    first/last/suffix
9744                0 1 0 0 2 0 3 0 0 0    first/last/suffix/suffix
975                 0 1 0 0 2 0 0 0 0 1    first/last/deceased
981967              0 1 2 0 6 0 0 0 0 0    first/prefix(first)/conj/first/initial/last
981967              0 4 5 0 6 0 0 0 0 0    first/prefix(first)/conj/first/initial/last
987                 0 1 0 2 3 0 0 0 0 0    first/prefix/last
9872                0 1 0 2 3 4 0 0 0 0    first/prefix/last/jrsr
98724               0 1 0 2 3 4 5 0 0 0    first/prefix/last/jrsr/suffix
9874                0 1 0 2 3 0 4 0 0 0    first/prefix/last/suffix
989197              0 1 0 2 3 0 0 0 0 0    first/prefix/last/conj/first/last
989197              0 5 0 0 6 0 0 0 0 0    first/prefix/last/conj/first/last
9913667             0 1 2 0 7 0 0 0 0 0    first/first/conj/title/initial/initial/last
9913667             4 5 6 0 7 0 0 0 0 0    first/first/conj/title/initial/initial/last
991667              0 1 2 0 6 0 0 0 0 0    first/first/conj/initial/initial/last
991667              0 4 5 0 6 0 0 0 0 0    first/first/conj/initial/initial/last
9916672             0 1 2 0 6 7 0 0 0 0    first/first/conj/initial/initial/last/jrsr
9916672             0 4 5 0 6 0 0 0 0 0    first/first/conj/initial/initial/last/jrsr
99167               0 1 2 0 5 0 0 0 0 0    first/first/conj/initial/last
99167               0 4 0 0 5 0 0 0 0 0    first/first/conj/initial/last
991697              0 1 2 0 6 0 0 0 0 0    first/first/conj/initial/first/last
991697              0 4 5 0 6 0 0 0 0 0    first/first/conj/initial/first/last
991967              0 1 2 0 6 0 0 0 0 0    first/first/conj/first/initial/last
991967              0 4 5 0 6 0 0 0 0 0    first/first/conj/first/initial/last
9919672             0 1 2 0 6 7 0 0 0 0    first/first/conj/first/initial/last/jrsr
9919672             0 4 5 0 6 0 0 0 0 0    first/first/conj/first/initial/last
99197               0 1 2 0 5 0 0 0 0 0    first/first/conj/first/last
99197               0 4 0 0 5 0 0 0 0 0    first/first/conj/first/last
991972              0 1 2 0 5 6 0 0 0 0    first/first/conj/first/last/jrsr
991972              0 4 0 0 5 0 0 0 0 0    first/first/conj/first/last/jrsr
9919724             0 1 2 0 5 6 7 0 0 0    first/first/conj/first/last/jrsr
9919724             0 4 0 0 5 0 0 0 0 0    first/first/conj/first/last/jrsr
991974              0 1 2 0 5 0 6 0 0 0    first/first/conj/first/last/suffix
991974              0 4 0 0 5 0 0 0 0 0    first/first/conj/first/last/suffix
991987              0 1 2 5 6 0 0 0 0 0    first/first/conj/first/prefix/last
991987              0 4 0 5 6 0 0 0 0 0    first/first/conj/first/prefix/last
9919872             0 1 2 5 6 7 0 0 0 0    first/first/conj/first/prefix/last/jrsr
9919872             0 4 0 5 6 0 0 0 0 0    first/first/conj/first/prefix/last/jrsr
99198724            0 1 2 5 6 7 8 0 0 0    first/first/conj/first/prefix/last/jrsr
99198724            0 4 0 5 6 0 0 0 0 0    first/first/conj/first/prefix/last/jrsr
9919874             0 1 2 5 6 0 7 0 0 0    first/first/conj/first/prefix/last/suffix
9919874             0 4 0 5 6 0 0 0 0 0    first/first/conj/first/prefix/last/suffix
991997              0 1 2 0 6 0 0 0 0 0    first/first/conj/first/first/last
991997              0 4 5 0 6 0 0 0 0 0    first/first/conj/first/first/last
9919972             0 1 2 0 6 7 0 0 0 0    first/first/conj/first/first/last/jrsr
9919972             0 4 5 0 6 0 0 0 0 0    first/first/conj/first/first/last/jrsr
99199724            0 1 2 0 6 7 8 0 0 0    first/first/conj/first/first/last/jrsr
99199724            0 4 5 0 6 0 0 0 0 0    first/first/conj/first/first/last/jrsr
9919974             0 1 2 0 6 0 7 0 0 0    first/first/conj/first/first/last/suffix
9919974             0 4 5 0 6 0 0 0 0 0    first/first/conj/first/first/last/suffix
9919987             0 1 2 6 7 0 0 0 0 0    first/first/conj/first/first/prefix/last
9919987             0 4 5 6 7 0 0 0 0 0    first/first/conj/first/first/prefix/last
99199872            0 1 2 6 7 8 0 0 0 0    first/first/conj/first/first/prefix/last/jrsr
99199872            0 4 5 6 7 0 0 0 0 0    first/first/conj/first/first/prefix/last/jrsr
991998724           0 1 2 6 7 8 9 0 0 0    first/first/conj/first/first/prefix/last/jrsr
991998724           0 4 5 6 7 0 0 0 0 0    first/first/conj/first/first/prefix/last/jrsr
99199874            0 1 2 6 7 0 8 0 0 0    first/first/conj/first/first/prefix/last/suffix
99199874            0 4 5 6 7 0 0 0 0 0    first/first/conj/first/first/prefix/last/suffix
9921667             0 1 2 0 7 3 0 0 0 0    first/first/jrsr/conj/initial/initial/last
9921667             0 5 6 0 7 0 0 0 0 0    first/first/jrsr/conj/initial/initial/last
9921967             0 1 2 0 7 3 0 0 0 0    first/first/jrsr/conj/first/initial/last
9921967             0 5 6 0 7 0 0 0 0 0    first/first/jrsr/conj/first/initial/last
992197              0 1 2 0 6 3 0 0 0 0    first/first/jrsr/conj/first/last
992197              0 5 0 0 6 0 0 0 0 0    first/first/jrsr/conj/first/last
9921997             0 1 2 0 7 3 0 0 0 0    first/first/jrsr/conj/first/first/last
9921997             0 5 6 0 7 0 0 0 0 0    first/first/jrsr/conj/first/first/last
9927                0 1 2 0 4 3 0 0 0 0    first/first/jrsr/last
995197              0 1 2 0 6 0 0 0 0 1    first/first/deceased/conj/first/last
995197              0 5 0 0 6 0 0 0 0 0    first/first/deceased/conj/first/last
9951997             0 1 2 0 7 0 0 0 0 1    first/first/deceased/conj/first/first/last
9951997             0 5 6 0 7 0 0 0 0 0    first/first/deceased/conj/first/first/last
9967                0 1 2 0 4 0 0 0 0 0    first/first/initial/last
997                 0 1 2 0 3 0 0 0 0 0    first/first/last
9972                0 1 2 0 3 4 0 0 0 0    first/first/last/jrsr
99724               0 1 2 0 3 4 5 0 0 0    first/first/last/jrsr/suffix
9974                0 1 2 0 3 0 4 0 0 0    first/first/last/suffix
9975                0 1 2 0 3 0 0 0 0 1    first/first/last/deceased
9987                0 1 2 3 4 0 0 0 0 0    first/first/prefix/last
99872               0 1 2 3 4 5 0 0 0 0    first/first/prefix/last/jrsr
998724              0 1 2 3 4 5 6 0 0 0    first/first/prefix/last/jrsr/suffix
99874               0 1 2 3 4 0 5 0 0 0    first/first/prefix/last/suffix
9991667             0 1 2 0 3 0 0 0 0 0    first/first/first(last)/conj/initial/initial/last
9991667             0 5 6 0 7 0 0 0 0 0    first/first/first(last)/conj/initial/initial/last
999167              0 1 2 0 3 0 0 0 0 0    first/first/first(last)/conj/initial/last
999167              0 5 0 0 7 0 0 0 0 0    first/first/first(last)/conj/initial/last
9991967             0 1 2 0 3 0 0 0 0 0    first/first/first(last)/conj/first/initial/last
9991967             0 5 6 0 7 0 0 0 0 0    first/first/first(last)/conj/first/initial/last
999197              0 1 2 0 3 0 0 0 0 0    first/first/first(last)/conj/first/last
999197              0 5 0 0 6 0 0 0 0 0    first/first/first(last)/conj/first/last